,Time(ns),Time(ns),Time(ns),Time(ns),Time(ns),Space(bytes),Space(bytes),Space(bytes),Space(bytes),Space(bytes)
,median,mean,max,sum,count,median,mean,max,sum,count
LoggingID,,,,,,,,,,
0353d787-cc42,44707.0,41731.12132822478,1369664,32675468,783,5968,5800.143039591316,6512,4541512,783
04397fa1-033e,1404.0,1657.1074371859297,63785,49464657,29850,592,592.9302512562814,1224,17698968,29850
06153b3f-f3f6,2560.0,8426.663244353183,778836,4103785,487,48,213.17453798767968,15064,103816,487
0b06abbd-f9ed,1632.0,1823.3333333333333,3384,32820,18,320,351.55555555555554,424,6328,18
0c5a7587-64b6,15602.0,22796.176570458403,1003795,13426948,589,2736,3257.9694397283533,67504,1918944,589
0cf390d4-27c6,177.0,341.8066032847332,747069,62664430,183333,112,101.17859850654274,1368,18549376,183333
0d20cd70-3f70,3344.0,3495.5454545454545,7078,38451,11,592,602.1818181818181,704,6624,11
0d5385fa-88d4,709.0,1032.8650568181818,10113,727137,704,48,51.625,136,36344,704
0fcd2317-aab1,2781.5,4956.507211538462,108465,2061907,416,936,889.5769230769231,1472,370064,416
10153462-b611,166.0,272.12837393021726,37393,1653452,6076,48,48.18959842001317,120,292800,6076
1069cc1d-1929,201.0,413.45770102565126,54428,62200990,150441,48,48.04280747934406,1304,7227608,150441
1109039c-769e,1239.0,2160.913131313131,32300,1069652,495,184,165.9151515151515,248,82128,495
116c66e4-860c,3443.0,3127.2947914054007,67498,37405573,11961,568,568.0695594013879,672,6794680,11961
11b30af4-a14a,776.0,1061.1399688958008,55628,17740138,16718,368,363.2276588108625,368,6072440,16718
12c5ac96-eebb,2053.5,3543.9375,24841,56703,16,0,0.0,0,0,16
137963c0-4dd5,4580.0,4580.0,4580,4580,1,864,864.0,864,864,1
139733a1-2e73,695.0,1524.8681227886646,227051,228850683,150079,48,48.09888125587191,14792,7218632,150079
13ae4389-50a4,1199.0,2086.558366947806,64795,34140268,16362,936,938.372326121501,1104,15353648,16362
14a77637-4a06,1041.0,1817.1499118165784,44953,1030324,567,184,185.7495590828924,248,105320,567
150ffc28-7923,16058.0,18769.572233652383,248235,209825048,11179,6552,6590.052777529296,7760,73670200,11179
15e4998e-36b6,930.0,2130.7109847138286,913193,17981070,8439,0,12.834696054034838,4168,108312,8439
16555575-1ec3,1518.0,3060.4594296894256,1764769,397321085,129824,1696,1778.1306384027607,2512,230844032,129824
188c3eee-8559,6668.0,9550.541666666666,36100,458426,48,560,566.6666666666666,688,27200,48
1c55b689-027f,3096.0,9076.046511627907,106799,390270,43,528,628.2790697674419,880,27016,43
1ca14be4-67a3,2887.0,10179.983859134263,563955,13875318,1363,640,1091.774027879677,15192,1488088,1363
1ffb6276-2c43,1495.0,4076.9775280898875,1219401,3991361,979,48,51.88968335035751,160,50800,979
20959409-c325,162.0,247.80057388809183,25365,1727170,6970,48,48.05164992826399,120,334920,6970
21184753-1023,4614.0,8742.669345579794,578134,7614865,871,840,812.4546498277841,10264,707648,871
2245dc34-4df1,1424.0,1637.1661931818182,27609,1152565,704,48,52.28409090909091,152,36808,704
24d9be20-246c,1320.0,2043.3382352941176,31839,2362099,1156,568,506.1937716262976,568,585160,1156
2522b7b9-cd0c,525.0,943.2727272727273,19913,664064,704,48,50.63636363636363,112,35648,704
279eb8ab-268c,4748.0,28961.6,244003,289616,10,856,2275.2,15960,22752,10
29eb2c19-fd7f,2214.0,3496.1154499151103,31928,2059212,589,928,932.088285229202,2312,549000,589
2ca72376-de8a,403.0,737.4358212809917,82365,5710703,7744,0,1.0206611570247934,768,7904,7744
2db6ef3a-b69c,9471.0,10312.070388349515,63989,4248573,412,12424,13211.184466019418,27560,5443008,412
2ee7e37f-bf77,1295.0,2313.0331276582997,7369732,38611462,16693,1352,1351.7694842149403,1464,22565088,16693
2f187de2-3c98,10034.0,10666.054672771344,52608,39603061,3713,15048,14536.112038782656,28552,53972584,3713
304a336d-5ef6,103.0,254.18892433967073,140317,102693088,404003,48,48.000475243995716,144,19392336,404003
30b83fe8-6277,486.0,968.5302810845064,523696,42795479,44186,48,48.02770108179061,1272,2122152,44186
30c68395-61a1,10758.5,13191.725267069205,830868,56803569,4306,3952,3808.0947515095218,4880,16397656,4306
32836a0f-4a38,2812.0,3793.8333333333335,16120,45526,12,80,86.66666666666667,240,1040,12
32e961bc-fff9,70.0,151.69075694180296,20607,1196385,7887,0,0.5801952580195258,1104,4576,7887
348ba3ea-24ac,64.0,190.48463612772267,229877,315119305,1654303,128,149.72064488790747,15288,247683312,1654303
35067b53-2f55,1663.5,2830.2688356164385,30426,1652877,584,432,391.4246575342466,496,228592,584
3540a4f4-ee1d,1502.5,2053.3928571428573,7848,57495,28,304,314.2857142857143,400,8800,28
388bf98d-4b83,142.0,1387.057142857143,17438,48547,35,48,50.05714285714286,120,1752,35
3b91bc7e-30a6,1924.0,3415.67362924282,35438,3924609,1149,648,654.0922541340296,776,751552,1149
3baf8047-c7b0,991.5,1096.2560975609756,4385,89893,82,48,50.048780487804876,216,4104,82
3f29aef7-804c,268.0,1322.8424938474159,106651,1612545,1219,640,641.0369155045119,832,781424,1219
42009f46-50f5,1371.0,2505.284668606531,563787,193721137,77325,1576,1584.365935984481,11808,122511096,77325
430a7fd4-89ab,4070.0,6751.598290598291,70849,789937,117,480,414.0854700854701,600,48448,117
4512c0cc-8e88,713.0,3674.0436709998203,6286336,61330811,16693,368,5087.102857485173,8321496,84919008,16693
453412ed-1e5e,1626.5,3531.092741935484,44607,875711,248,368,378.83870967741933,480,93952,248
48c5d954-7103,940.0,1590.6653543307086,21421,1212087,762,48,67.10761154855643,328,51136,762
495ea13f-d751,5022.0,5089.73430315191,123176,60878312,11961,2920,2701.725942646936,2992,32315344,11961
4af5810c-0819,1735.5,2727.7926136363635,27771,960183,352,0,35.81818181818182,1160,12608,352
4d3a496f-f113,6335.0,7369.122448979592,18010,361087,49,0,8.653061224489797,424,424,49
4df8147c-95f3,4423.0,4423.0,7018,8846,2,152,152.0,256,304,2
4f77e373-27aa,294.0,539.9584007922484,885762,262806393,486716,48,48.00336952144577,1304,23364008,486716
50f40c93-c174,61.0,151.32208057916273,31827,19230010,127080,120,148.464841045011,592,18866912,127080
5616d7c6-e5ad,1923.0,2915.9506172839506,35513,472384,162,560,571.8518518518518,680,92640,162
5947de1b-adfc,2043.0,3894.4285714285716,16976,81783,21,432,428.1904761904762,480,8992,21
59cad499-a528,1929.0,1941.6320681092586,47251,27367304,14095,392,792.1441645973749,1216,11165272,14095
5a09e694-a0c6,497.0,575.3333623617522,99967,6606553,11483,288,288.01254027693113,360,3307248,11483
5aa348a1-01c3,47172.5,88352.70511473113,99746640,13114545431,148434,110184,114589.91756605629,36932256,17009039824,148434
5b809a0f-96ad,934.0,1260.0881866851241,121401,89205423,70793,544,544.0596669162205,672,38515616,70793
5cfae5ad-1e7b,2654.0,3643.0746268656717,46930,3173118,871,856,804.1974741676235,2232,700456,871
5ea32d1b-ec65,128.0,148.55244557534633,13051,525430,3537,48,48.0316652530393,160,169888,3537
5f1f1271-e5c6,2905.0,5173.148936170212,77089,6078450,1175,392,395.8331914893617,472,465104,1175
60540e08-7b11,1836.5,2662.25,9172,21298,8,288,253.0,296,2024,8
61bf418c-0a21,911.0,1793.7602040816328,37105,351577,196,288,255.0204081632653,368,49984,196
631bba5b-7274,872.0,1317.6338676875225,68443,22028203,16718,528,526.3088886230411,528,8798832,16718
6324df0a-c714,2533.5,3487.432098765432,52854,564964,162,936,940.5432098765432,1120,152368,162
6739c123-eee8,5201.0,6313.636363636364,14090,69450,11,640,650.9090909090909,760,7160,11
6773fd88-8d3c,6179.0,6179.0,6179,6179,1,360,360.0,360,360,1
681a17e7-7194,8287.0,14285.895417299373,8214338,3988964862,279224,4408,8932.228977451796,72328,2494092704,279224
68d34779-b343,1574.0,4655.265463917526,607846,1806243,388,48,65.69072164948453,224,25488,388
6938b92b-aaf0,2543.0,4615.873643135864,3477504,65060739,14095,3080,2680.607875133026,58272,37783168,14095
699c127d-d958,1403.0,1481.4166666666667,2374,17777,12,320,336.0,416,4032,12
6b0033ff-c648,1001.5,1119.0555555555557,2310,20143,18,520,529.7777777777778,608,9536,18
6b7fc802-07ea,239.0,573.1943925233645,21181,613318,1070,592,593.1514018691589,704,634672,1070
6beec857-e12d,2353.0,2934.0833333333335,6846,35209,12,312,325.3333333333333,392,3904,12
6bf1f898-0e20,907.0,2470.4372904752513,420107,25055175,10142,0,37.11457306251233,12592,376416,10142
6d926772-d642,8438.5,8936.333333333334,16434,107236,12,0,0.0,0,0,12
6db1801c-f7c9,1125.0,3720.740740740741,29813,100460,27,48,74.96296296296296,152,2024,27
7338bb0f-f006,10729.0,14332.168961493582,2240991,61413344,4285,3952,3998.683780630105,4744,17134360,4285
7626a7a3-745c,1352.0,2052.371892409992,56498,34260244,16693,1016,1016.5880309111603,1848,16969904,16693
76b5a1d5-9d4d,1608.0,23616.85,407100,472337,20,48,72.0,128,1440,20
7986e1c0-8c0b,2202.0,4627.584905660377,73913,245262,53,48,64.45283018867924,200,3416,53
7bd23849-4504,9900.0,27465.75,193851,329589,12,0,104.0,1248,1248,12
7ef9be5b-0458,3466.0,6576.941176470588,13423,111808,17,488,524.2352941176471,600,8912,17
81ed6117-b5d5,1565.0,1565.0,1565,1565,1,288,288.0,288,288,1
832d24aa-4817,1364.5,2551.3888888888887,15235,45925,18,516,523.1111111111111,608,9416,18
8357efd3-d31a,2439.0,3550.626234132581,44687,2517394,709,288,291.4978843441467,368,206672,709
86f51810-bd40,1421.5,3647.880224260958,1101624,35785705,9810,1400,3492.101121304791,1049064,34257512,9810
87efccbe-afc0,2064.0,4054.473075558709,8312282,57147798,14095,1128,878.5481376374601,1520,12383136,14095
89178e6c-36e2,62.0,182.82011331444758,52206,23232780,127080,152,202.94378344350017,616,25790096,127080
89d7f45d-59cf,1323.0,2222.8571428571427,16067,46680,21,48,77.71428571428571,152,1632,21
89f3f10c-dc3d,11335.5,8425.4,16623,84254,10,408,372.8,408,3728,10
8aef9db9-5356,168.5,419.0511363636364,14156,73753,176,48,48.63636363636363,160,8560,176
8bf02acc-53e2,1224.0,2207.2869269949065,67959,1300092,589,584,568.5025466893039,640,334848,589
8cdd5bc1-3eeb,5970.0,6678.955555555555,35014,901659,135,312,289.6,456,39096,135
8e1cfa8a-350f,2845.0,2845.0,4110,5690,2,252,252.0,328,504,2
8ffd3245-48eb,8405.5,12893.42857142857,35913,180508,14,408,366.85714285714283,408,5136,14
904b9b32-3443,2989.0,4541.5,32913,572229,126,552,559.6825396825396,640,70520,126
90bfc70b-7e36,76.0,147.11133713434376,50220,41077016,279224,48,48.01002779130734,160,13405552,279224
923fc317-1af2,888.0,1429.7725674091441,90959,1219596,853,496,496.2250879249707,592,423280,853
92414361-dd61,125.0,155.9669014084507,14022,442946,2840,48,48.03661971830986,152,136424,2840
93e63b22-a2a3,1012.0,1678.0282828282827,18111,830624,495,304,274.08484848484846,392,135672,495
94592dcb-4fd5,14833.0,126550.2205882353,7204538,8605415,68,600,600.0,600,40800,68
94ec16f7-aed9,8236.0,10762.364476386037,285942,20965086,1948,1256,1251.8028747433266,2264,2438512,1948
9524122c-0d0d,244.0,731.2228549734244,270008,5778123,7902,0,0.5011389521640092,696,3960,7902
9842765e-8dbb,1553.0,2668.4126163391934,24321,2580355,967,48,59.91313340227508,1272,57936,967
98d63ce9-c3e9,9653.0,12318.688679245282,134701,2611562,212,0,77.54716981132076,4456,16440,212
a2435b2f-ba23,8278.0,17941.980938416422,3887369,24472862,1364,1152,1153.348973607038,2368,1573168,1364
a301da43-5e42,9840.0,10571.45145631068,67694,4355438,412,13928,14135.766990291262,29032,5823936,412
a3da58a5-9642,1535.0,3396.5871377530766,190228,8556003,2519,304,297.6419213973799,488,749760,2519
a54c3fbb-ac2c,3230.0,6215.287892376682,143291,6930046,1115,616,619.9820627802691,736,691280,1115
a5635c44-1f08,3796.0,8456.530612244898,150239,414370,49,560,872.8163265306123,15360,42768,49
a5a53e0e-fbdd,1360.0,2579.3165814387917,5330331,851925053,330291,0,401.58236221998175,3952,132639040,330291
a5eb85e7-3ee6,597.0,854.6328508194761,53506,14287752,16718,312,312.04306735255415,456,5216736,16718
a614dd4b-a035,1600.0,3920.5022635970527,60276900,1583894676,404003,1696,1788.4967586874354,324480,722558056,404003
a6a87989-dcdf,2012.0,4230.386503067484,414896,4137318,978,296,296.80163599182004,376,290272,978
a737b092-dba0,2738.0,4202.125370919881,58756,5664465,1348,576,578.8486646884273,696,780288,1348
a7c3ba75-8778,548.0,1029.4807174887892,68062,1147871,1115,48,50.841255605381164,136,56688,1115
a8f625a9-091f,12124.0,12022.666666666666,12130,36068,3,0,16.0,48,48,3
ab3ae708-d1cd,3336.0,9798.111111111111,48145,352732,36,48,74.22222222222223,144,2672,36
abc59dc4-4297,20368.0,20368.0,20368,20368,1,5632,5632.0,5632,5632,1
af17c0eb-cf84,5183.5,4446.326923076923,10157,231209,52,48,54.0,152,2808,52
afbbf6c5-234c,751.0,983.3977433004231,8939,697229,709,48,51.148095909732014,120,36264,709
b0d0fd61-1a49,1907.0,3840.5135699373695,125146,5518818,1437,352,354.5107863604732,440,509432,1437
b172b597-2f0e,21332.0,37217.14739229025,1139558,49238286,1323,8528,8725.327286470143,9704,11543608,1323
b186354a-e827,508.0,974.8981132075472,25881,516696,530,48,54.339622641509436,168,28800,530
b49b2fd5-72ee,7525.0,13364.119402985074,45029,895396,67,560,576.3582089552239,688,38616,67
b630f03f-f4b5,10481.5,11018.810211267606,61129,31293421,2840,14824,14812.214084507043,28328,42066688,2840
b8bb40b2-5c01,1301.0,2263.621524663677,38286,2523938,1115,48,51.09955156950673,144,56976,1115
bad6bbd8-8667,830.0,1218.8666666666666,13872,164547,135,48,46.1037037037037,112,6224,135
bc356a16-82f5,7757.0,16200.790816326531,1574133,9526065,588,2216,2257.2517006802723,3632,1327264,588
bda55bbe-21f6,585.0,858.2192846034214,754908,14347710,16718,384,382.5122622323244,552,6394840,16718
be8cff70-4e91,5812.0,10665.462962962964,178080,1727805,162,6920,9615.901234567902,27560,1557776,162
c03d503b-a61e,3460.0,5895.866537717601,100588,3048163,517,512,518.2359767891683,688,267928,517
c0db835e-f1c2,800.0,1669.342697343333,70562,13132719,7867,0,3.780856743358332,1232,29744,7867
c11904db-62fa,1271.0,2127.20905530668,102200,226503093,106479,664,640.2037584875891,856,68168256,106479
c18fa10b-7f98,1196.0,6604.894736842105,53695,125493,19,752,650.9473684210526,880,12368,19
c5b1bd0d-84bf,122.0,159.83593932322054,22603,684897,4285,48,48.08961493582264,144,206064,4285
c5ba7973-7bef,2794.0,13508.149425287356,191567,1175209,87,856,839.1724137931035,15656,73008,87
c6bcb808-a29b,671.0,1519.5143074980344,783320,63775535,41971,0,16.934740654261276,25256,710768,41971
c7137594-9599,2381.0,3939.4259532958913,414463,13327078,3383,336,336.75672480047297,416,1139248,3383
c783e0f1-7e69,84.0,213.40282091097308,24088,1649177,7728,0,0.8488612836438924,216,6560,7728
c7b34c2f-eb2c,556.0,1041.9260179272364,1005463,266769528,256035,48,48.00528052805281,1304,12291032,256035
ca19dd62-40cc,28936.0,28936.0,28936,28936,1,3784,3784.0,3784,3784,1
cb017f40-dfbd,230389.0,416075.46428571426,1581720,11650113,28,108936,114465.42857142857,146720,3205032,28
cc4e8dc2-88e7,1998.0,3281.4132653061224,24842,1929471,588,1120,1121.5374149659865,1224,659464,588
cce88dfb-0568,1660.0,1895.8095238095239,3260,39812,21,312,335.23809523809524,400,7040,21
cd3d4408-933b,4464.0,9137.900167785236,212204,10892377,1192,1400,1411.6040268456377,2112,1682632,1192
cf87c4ff-d518,1412.0,2245.032258064516,15588,278384,124,512,522.6451612903226,632,64808,124
d0003f1a-5a52,4228.0,4216.5,4426,25299,6,392,453.3333333333333,576,2720,6
d10a89ae-ff55,437.0,592.6125184456469,21667,4819125,8132,48,48.0,48,390336,8132
d381e18c-e795,176.0,395.4318181818182,17502,226187,572,48,48.44755244755245,112,27712,572
d450c029-3f6e,15526.0,16524.3610719323,122703,11715772,709,1304,1307.9830747531735,1768,927360,709
d54dae4a-1c58,7593.0,8435.453310696095,91522,4968482,589,608,628.9847198641766,992,370472,589
d87c94a9-54b0,1010.0,2631.9327814271574,931076,29248669,11113,0,29.50490416629173,18048,327888,11113
d984f22e-91d1,4106.5,5239.875,15794,83838,16,48,48.0,48,768,16
dad78a75-b5a8,190.0,366.89984385296395,114543,102447242,279224,88,91.42595192390338,224,25528320,279224
dc054b82-02d6,274.0,464.636171757217,96723,41605846,89545,128,151.42330671729297,336,13559200,89545
dd677d42-62c9,388.0,515.7041860059072,34417,35443833,68729,624,681.3829387885754,1096,46830768,68729
e058ac96-aa2e,2360.0,5493.9610169491525,780922,6482874,1180,592,597.5593220338983,704,705120,1180
e333b016-92f4,401.5,2869.0833333333335,29721,34429,12,48,65.33333333333333,152,784,12
e47b0972-72b2,2388.0,3592.446808510638,22587,168845,47,192,196.59574468085106,264,9240,47
e4d8e0a0-2243,110.0,344.8876188558133,1283384,160973537,466742,0,0.08710593861276679,14480,40656,466742
e4e4e1ea-00cd,1673.5,3372.200680272109,42456,3965708,1176,576,581.9183673469388,1832,684336,1176
e956a7ba-9fba,306.0,546.8767924744751,557823,33369875,61019,512,515.1009357741032,664,31430944,61019
efdb1281-eecb,3005.0,4291.802469135802,51313,695272,162,1016,1014.9135802469136,1080,164416,162
f131b80d-a8db,2830.0,4239.853129620503,75111,8602662,2029,656,660.38048299655,784,1339912,2029
f1ce7861-9257,3199.0,3199.0,3199,3199,1,304,304.0,304,304,1
f49bfadc-d6ca,954.0,1585.494983277592,23849,474063,299,288,263.2240802675585,368,78704,299
fae6fe6b-488c,1256.0,4935.333073743485,5393888,82385515,16693,1664,7283.175942011621,8501952,121578056,16693
fc83ed1c-871b,136.5,300.94417475728153,21744,123989,412,48,48.0,48,19776,412
fc871b35-2f85,10333.0,13594.85407725322,250941,3167601,233,600,603.7081545064377,816,140664,233
