,Time(ns),Time(ns),Time(ns),Time(ns),Time(ns),Space(bytes),Space(bytes),Space(bytes),Space(bytes),Space(bytes)
,median,mean,max,sum,count,median,mean,max,sum,count
LoggingID,,,,,,,,,,
0353d787-cc42,40263.0,38076.858237547895,950104,29814180,783,5968,5803.923371647509,6528,4544472,783
04397fa1-033e,1434.0,1668.7951341443093,90126,50072198,30005,592,592.9731711381437,1224,17792160,30005
06153b3f-f3f6,2327.5,8348.11475409836,819079,4073880,488,48,212.63934426229508,15064,103768,488
0b06abbd-f9ed,1707.5,2522.3333333333335,9889,45402,18,320,351.55555555555554,424,6328,18
0c5a7587-64b6,13388.0,23892.077571669477,549813,14168002,593,2736,3230.5699831365937,54784,1915728,593
0cf390d4-27c6,174.0,342.8831622388165,151345,63227998,184401,112,101.23606704952793,1336,18668032,184401
0d20cd70-3f70,3319.0,4310.181818181818,10984,47412,11,592,602.1818181818181,704,6624,11
0d5385fa-88d4,702.5,1023.6022727272727,14838,720616,704,48,51.625,136,36344,704
0fcd2317-aab1,2543.0,4260.959619952494,67647,1793864,421,936,888.1330166270784,1472,373904,421
10153462-b611,222.5,282.77886233591386,23858,1680272,5942,48,48.169639851901714,120,286224,5942
1069cc1d-1929,197.0,410.1682127806197,54632,61900946,150916,48,48.043944976013144,1304,7250600,150916
1109039c-769e,1311.0,2640.195519348269,35703,1296336,491,184,164.64358452138492,248,80840,491
116c66e4-860c,2864.0,2722.2664492935373,63133,32561029,11961,568,568.0695594013879,672,6794680,11961
11b30af4-a14a,809.0,1076.4137991063658,45541,18549839,17233,368,363.3387106133581,368,6261416,17233
12c5ac96-eebb,2324.0,3389.8125,18958,54237,16,0,15.5,248,248,16
137963c0-4dd5,7531.0,7531.0,7531,7531,1,864,864.0,864,864,1
139733a1-2e73,704.0,1532.9304094072602,720612,230609452,150437,48,48.10699495469864,14792,7237072,150437
13ae4389-50a4,1203.0,1965.2775830313112,78092,33077587,16831,936,928.7053651001129,1104,15631040,16831
14a77637-4a06,952.5,1610.5927835051546,40246,937365,582,184,185.82817869415808,248,108152,582
150ffc28-7923,15985.0,18933.19787100814,234806,211654219,11179,6552,6590.193756149924,7760,73671776,11179
15e4998e-36b6,954.0,2136.783276650639,889299,18220351,8527,0,12.013603846604902,4776,102440,8527
16555575-1ec3,1582.0,3249.1847911710797,19431020,416594228,128215,1696,1778.3671489295325,2512,228013344,128215
188c3eee-8559,6847.0,10105.936170212766,30552,474979,47,560,568.1702127659574,688,26704,47
1c55b689-027f,2014.0,20039.263157894737,481139,761492,38,528,647.3684210526316,880,24600,38
1ca14be4-67a3,2640.0,10082.574374079528,298910,13692136,1358,640,1098.220913107511,15192,1491384,1358
1ffb6276-2c43,1472.0,4067.02569373073,925037,3957216,973,48,52.02877697841727,160,50624,973
20959409-c325,174.0,253.68142501099547,37340,1730361,6821,48,48.05277818501686,120,327768,6821
21184753-1023,4473.0,8522.123163841808,576655,7542079,885,840,798.2915254237288,3968,706488,885
2245dc34-4df1,1282.5,1679.9446022727273,32550,1182681,704,48,52.28409090909091,152,36808,704
24d9be20-246c,1259.0,2030.0017021276597,49717,2385252,1175,568,507.5472340425532,568,596368,1175
2522b7b9-cd0c,511.0,909.6193181818181,14728,640372,704,48,50.63636363636363,112,35648,704
279eb8ab-268c,4748.0,34668.3,303261,346683,10,856,2275.2,15960,22752,10
29eb2c19-fd7f,1918.0,3298.6610455311975,33686,1956106,593,928,932.0607082630692,2312,552712,593
2ca72376-de8a,403.0,733.903448275862,46350,5746464,7830,0,1.2056194125159643,2496,9440,7830
2db6ef3a-b69c,9543.0,11604.623188405798,57580,5605033,483,15272,14598.144927536232,28232,7050904,483
2ee7e37f-bf77,1281.0,1821.563313197026,47188,31360034,17216,1352,1351.761152416357,1464,23271920,17216
2f187de2-3c98,10349.0,11659.682486948268,52716,49133902,4214,15240,14925.402942572378,29224,62895648,4214
304a336d-5ef6,99.0,255.57647478474786,80387,103891837,406500,48,48.00047232472325,144,19512192,406500
30b83fe8-6277,498.0,896.1024301910561,114796,34145087,38104,48,48.03296241864371,1304,1830248,38104
30c68395-61a1,10561.5,12477.063211125158,161496,59216142,4746,3952,3818.1424357353562,4880,18120904,4746
32836a0f-4a38,1622.5,2995.5833333333335,14808,35947,12,80,86.66666666666667,240,1040,12
32e961bc-fff9,77.0,154.89563472152534,13379,1234828,7972,0,0.308078273958856,888,2456,7972
348ba3ea-24ac,79.0,195.9870798454488,219295,325953560,1663138,128,149.7141043016274,15288,248995216,1663138
35067b53-2f55,1632.0,3538.680203045685,55771,2091360,591,432,390.917089678511,712,231032,591
3540a4f4-ee1d,1485.5,2214.035714285714,7318,61993,28,304,314.2857142857143,400,8800,28
388bf98d-4b83,184.5,1659.34375,13609,53099,32,48,48.0,48,1536,32
3b91bc7e-30a6,1995.0,3422.1543739279587,41225,3990232,1166,648,654.0034305317324,776,762568,1166
3baf8047-c7b0,970.0,1043.4146341463415,4336,85560,82,48,50.048780487804876,216,4104,82
3f29aef7-804c,315.0,1516.478330658106,97514,1889532,1246,640,639.9871589085072,832,797424,1246
42009f46-50f5,1382.0,2569.379229105515,624987,199579101,77676,1576,1584.9167310366136,11808,123109992,77676
430a7fd4-89ab,4464.0,6796.327272727272,55801,747596,110,480,410.6181818181818,600,45168,110
4512c0cc-8e88,691.0,3167.6822723048326,6992497,54534818,17216,368,4944.162639405205,8321496,85118704,17216
453412ed-1e5e,1910.0,3937.0176991150443,67215,889766,226,368,379.39823008849555,480,85744,226
48c5d954-7103,887.0,1653.736220472441,20537,1260147,762,48,67.10761154855643,328,51136,762
495ea13f-d751,5126.0,5241.630800100326,127136,62695146,11961,2920,2701.3948666499455,2992,32311384,11961
4af5810c-0819,2261.0,2796.3039772727275,29750,984299,352,0,425.1818181818182,65960,149664,352
4d3a496f-f113,6835.0,8541.458333333334,30578,409990,48,0,8.833333333333334,424,424,48
4df8147c-95f3,2260.5,2260.5,2414,4521,2,256,256.0,256,512,2
4f77e373-27aa,309.0,559.0041819771459,440498,274290495,490677,48,48.00826613026492,1304,23556552,490677
50f40c93-c174,63.0,144.04267371896688,53584,18409662,127807,120,149.21711643337218,592,19070992,127807
5616d7c6-e5ad,1918.0,3355.818181818182,27288,627538,187,560,571.5508021390374,680,106880,187
5947de1b-adfc,2242.0,3928.7619047619046,21677,82504,21,432,428.1904761904762,480,8992,21
59cad499-a528,1967.0,2010.588422048095,561925,29764751,14804,1192,827.613617941097,1216,12251992,14804
5a09e694-a0c6,472.0,547.0284520316529,23664,6152429,11247,288,288.0128034142438,360,3239280,11247
5aa348a1-01c3,49617.0,90909.7445296768,213095265,13498551597,148483,110272,114673.95664150105,36735648,17027133104,148483
5b809a0f-96ad,936.0,1273.114336268273,369681,90659745,71211,544,544.0629116288214,672,38743264,71211
5cfae5ad-1e7b,2841.0,3561.472316384181,31353,3151903,885,856,797.4689265536723,2504,705760,885
5ea32d1b-ec65,166.0,188.77320099255584,19000,760756,4030,48,48.0,48,193440,4030
5f1f1271-e5c6,2948.0,5175.307627118644,85585,6106863,1180,392,395.81694915254235,472,467064,1180
60540e08-7b11,1285.0,2396.75,9646,19174,8,288,253.0,296,2024,8
61bf418c-0a21,956.5,2777.40206185567,41973,538816,194,288,248.7422680412371,368,48256,194
631bba5b-7274,892.0,1301.1465212093078,66806,22422658,17233,528,526.3482852666396,528,9070560,17233
6324df0a-c714,2071.0,2977.7080745341614,46084,479411,161,936,938.335403726708,1120,151072,161
6739c123-eee8,5851.0,6426.090909090909,14421,70687,11,640,650.9090909090909,760,7160,11
6773fd88-8d3c,5989.0,5989.0,5989,5989,1,360,360.0,360,360,1
681a17e7-7194,8423.0,14943.312247118305,223230986,4202926116,281258,4488,8632.500408877258,69248,2427959800,281258
68d34779-b343,1723.0,2934.9819587628867,79658,1138773,388,48,65.69072164948453,224,25488,388
6938b92b-aaf0,2396.0,6216.223655768711,31598335,92024975,14804,3056,2652.521480680897,58272,39267928,14804
699c127d-d958,1264.0,1426.6666666666667,3303,17120,12,320,336.0,416,4032,12
6b0033ff-c648,1364.5,2793.3333333333335,22523,50280,18,520,529.7777777777778,608,9536,18
6b7fc802-07ea,238.0,596.4253666954271,17574,691257,1159,592,592.9663503019844,704,687248,1159
6beec857-e12d,2145.5,3058.5,7847,36702,12,312,325.3333333333333,392,3904,12
6bf1f898-0e20,947.0,2534.122221134071,182520,25875922,10211,0,37.29076486142395,24896,380776,10211
6d926772-d642,9137.0,9799.333333333334,22250,117592,12,0,0.0,0,0,12
6db1801c-f7c9,1236.5,12706.0,250745,304944,24,48,74.0,152,1776,24
7338bb0f-f006,10707.0,14060.51510031679,2422819,66576539,4735,3936,3999.324181626188,4728,18936800,4735
7626a7a3-745c,1310.0,2272.8222583643123,4917940,39128908,17216,1016,1016.5580855018587,1848,17501064,17216
76b5a1d5-9d4d,1875.0,5204.695652173913,20742,119708,23,48,75.82608695652173,128,1744,23
7986e1c0-8c0b,2020.0,3341.84,8930,167092,50,48,63.2,200,3160,50
7bd23849-4504,9357.0,18986.909090909092,85957,208856,11,0,113.45454545454545,1248,1248,11
7ef9be5b-0458,2875.0,10136.176470588236,58019,172315,17,488,524.2352941176471,600,8912,17
81ed6117-b5d5,1105.0,1105.0,1105,1105,1,288,288.0,288,288,1
832d24aa-4817,1599.5,2440.5555555555557,9221,43930,18,516,523.1111111111111,608,9416,18
8357efd3-d31a,2375.0,3194.5289139633287,48041,2264921,709,288,291.4978843441467,368,206672,709
86f51810-bd40,1366.0,3254.533419406098,707067,32769897,10069,1400,3426.4836627271825,1049064,34501264,10069
87efccbe-afc0,1836.0,3279.6477978924613,382464,48551906,14804,1128,865.4471764388003,1520,12812080,14804
89178e6c-36e2,64.0,164.8602502210364,43262,21070294,127807,152,204.3631412989899,616,26119040,127807
89d7f45d-59cf,1364.0,1937.095238095238,8904,40679,21,48,77.71428571428571,152,1632,21
89f3f10c-dc3d,11297.0,12108.0,53591,121080,10,408,372.8,408,3728,10
8aef9db9-5356,194.5,458.6141304347826,14889,84385,184,48,48.0,48,8832,184
8bf02acc-53e2,1095.0,1937.0016863406408,87994,1148642,593,584,568.7015177065767,640,337240,593
8cdd5bc1-3eeb,7468.0,7509.681481481482,50583,1013807,135,312,289.6,456,39096,135
8e1cfa8a-350f,1452.0,2256.75,4913,9027,4,176,214.0,328,856,4
8ffd3245-48eb,11045.0,13056.214285714286,38835,182787,14,408,366.85714285714283,408,5136,14
904b9b32-3443,3472.0,4882.190476190476,26990,615156,126,552,559.6825396825396,640,70520,126
90bfc70b-7e36,77.0,147.7120899672187,74168,41545207,281258,48,49.18197526825904,329688,13832824,281258
923fc317-1af2,990.0,1493.2931596091205,101160,1375323,921,496,496.20846905537456,592,457008,921
92414361-dd61,152.0,173.2158251231527,13830,562605,3248,48,48.0,48,155904,3248
93e63b22-a2a3,1082.0,2273.706720977597,11504,1116390,491,304,271.9837067209776,392,133544,491
94592dcb-4fd5,13922.0,19021.779411764706,75260,1293481,68,600,600.0,600,40800,68
94ec16f7-aed9,8085.0,10797.315628192033,457970,21141144,1958,1256,1251.652706843718,2264,2450736,1958
9524122c-0d0d,216.0,707.792063094642,238929,5653843,7988,0,0.9153730595893841,2616,7312,7988
9842765e-8dbb,1524.0,2775.1985522233713,68892,2683617,967,48,59.91313340227508,1272,57936,967
98d63ce9-c3e9,9733.0,11654.290322580646,61766,2528981,217,0,94.19354838709677,4696,20440,217
a2435b2f-ba23,7300.0,11378.322132943755,90792,15576923,1369,1152,1151.9474068663258,2280,1577016,1369
a301da43-5e42,9868.0,11860.583850931676,47356,5728662,483,16072,15503.68530020704,29704,7488280,483
a3da58a5-9642,1579.0,3473.73707698029,416719,9340879,2689,304,299.2606917069543,952,804712,2689
a54c3fbb-ac2c,3112.5,5988.370106761566,86453,6730928,1124,616,620.0569395017793,736,696944,1124
a5635c44-1f08,3576.5,8036.854166666667,144860,385769,48,560,881.1666666666666,15360,42296,48
a5a53e0e-fbdd,1365.0,2590.088143732008,16159533,861945073,332786,0,400.4801163510484,4736,133274176,332786
a5eb85e7-3ee6,663.0,917.8193582080892,41961,15816781,17233,312,312.0417803052283,456,5377416,17233
a614dd4b-a035,1609.0,3789.737552275523,15748813,1540528315,406500,1696,1789.1137613776139,451240,727274744,406500
a6a87989-dcdf,2188.5,3965.3199588477364,171822,3854291,972,296,296.8888888888889,376,288576,972
a737b092-dba0,2622.0,4199.574529667149,134125,5803812,1382,576,578.7785817655572,696,799872,1382
a7c3ba75-8778,469.0,956.4786476868327,15791,1075082,1124,48,50.89679715302491,136,57208,1124
a8f625a9-091f,10989.0,11173.333333333334,11633,33520,3,0,16.0,48,48,3
ab3ae708-d1cd,3269.0,8151.142857142857,36486,285290,35,48,71.31428571428572,144,2496,35
abc59dc4-4297,22401.0,22401.0,22401,22401,1,5632,5632.0,5632,5632,1
af17c0eb-cf84,5435.5,4533.125,11357,217590,48,48,54.5,152,2616,48
afbbf6c5-234c,722.0,991.5698166431594,25099,703023,709,48,51.148095909732014,120,36264,709
b0d0fd61-1a49,2081.0,4052.9762066621347,470856,5961928,1471,352,354.57239972807616,440,521576,1471
b172b597-2f0e,20799.5,35831.527861445786,1027392,47584269,1328,8528,8744.138554216868,9640,11612216,1328
b186354a-e827,608.0,1133.3264150943396,24657,600663,530,48,54.339622641509436,168,28800,530
b49b2fd5-72ee,7042.5,11745.779411764706,62717,798713,68,560,575.1764705882352,688,39112,68
b630f03f-f4b5,10302.0,11979.355603448275,59937,38908947,3248,15400,15167.330049261083,29000,49263488,3248
b8bb40b2-5c01,1125.0,2297.603202846975,50128,2582506,1124,48,51.16014234875445,144,57504,1124
bad6bbd8-8667,1116.0,1204.437037037037,8329,162599,135,48,46.1037037037037,112,6224,135
bc356a16-82f5,7432.5,12360.390202702703,296226,7317351,592,2216,2255.7702702702704,3632,1335416,592
bda55bbe-21f6,598.0,809.119828236523,56489,13943562,17233,384,382.5446527012128,552,6592392,17233
be8cff70-4e91,4447.0,10572.60248447205,124159,1702189,161,4136,7698.484472049689,27560,1239456,161
c03d503b-a61e,2593.0,4767.144814090019,93014,2436011,511,512,518.3091976516635,688,264856,511
c0db835e-f1c2,820.0,1692.7819964797586,76540,13464388,7954,0,3.567513200905205,1232,28376,7954
c11904db-62fa,1275.0,2172.8053509611846,1543640,236001426,108616,664,640.0265154305075,1920,69517120,108616
c18fa10b-7f98,2040.0,9391.5,52729,169047,18,824,700.4444444444445,880,12608,18
c5b1bd0d-84bf,155.0,187.3507919746568,11739,887106,4735,48,48.08109820485745,144,227664,4735
c5ba7973-7bef,3083.5,14180.988636363636,247407,1247927,88,856,835.9090909090909,15656,73560,88
c6bcb808-a29b,660.0,1524.3582653013073,959618,64605352,42382,0,17.110660185927987,27248,725184,42382
c7137594-9599,2529.0,4200.384815242494,506778,14550133,3464,336,336.7390300230947,416,1166464,3464
c783e0f1-7e69,88.0,211.69534050179212,23060,1653764,7812,0,0.8141321044546851,216,6360,7812
c7b34c2f-eb2c,565.0,1065.66504013544,498666,272553425,255759,48,48.00075070672,144,12276624,255759
cb017f40-dfbd,256419.0,594226.1428571428,4336224,16638332,28,108936,114478.57142857143,146720,3205400,28
cc4e8dc2-88e7,1882.5,3246.491554054054,44843,1921923,592,1120,1121.527027027027,1224,663944,592
cce88dfb-0568,1945.0,3886.809523809524,15351,81623,21,312,335.23809523809524,400,7040,21
cd3d4408-933b,2773.0,7393.02252559727,147175,10830778,1465,1400,1409.0047781569965,2112,2064192,1465
cf87c4ff-d518,1493.5,2573.2419354838707,32708,319082,124,512,522.6451612903226,632,64808,124
d0003f1a-5a52,4583.0,4541.666666666667,4993,27250,6,392,453.3333333333333,576,2720,6
d10a89ae-ff55,475.0,912.1620540452282,42592,11173073,12249,48,48.0,48,587952,12249
d381e18c-e795,181.0,431.08253358925145,13190,224594,521,48,48.49136276391555,112,25264,521
d450c029-3f6e,14261.0,15828.101551480959,129540,11222124,709,1304,1316.1071932299012,1768,933120,709
d54dae4a-1c58,7351.5,8459.085034013606,134577,4973942,588,608,628.4897959183673,992,369552,588
d87c94a9-54b0,1063.0,3263.9584077115314,6187429,36569390,11204,0,28.720456979650123,16400,321784,11204
d984f22e-91d1,5077.0,6237.375,18767,99798,16,48,48.0,48,768,16
dad78a75-b5a8,177.0,393.8270342532479,7401713,110767004,281258,88,91.72290210411792,184,25797800,281258
dc054b82-02d6,272.0,469.1680990258487,99933,42526804,90643,128,151.68103438765266,1400,13748824,90643
dd677d42-62c9,346.0,383.25056871208585,95605,26281791,68576,624,680.5688287447504,1096,46670688,68576
e058ac96-aa2e,2386.0,5397.012658227848,813054,6395460,1185,592,597.535864978903,704,708080,1185
e333b016-92f4,386.5,450.1666666666667,830,5402,12,48,65.33333333333333,152,784,12
e47b0972-72b2,2477.0,3441.9148936170213,15589,161770,47,192,196.59574468085106,264,9240,47
e4d8e0a0-2243,105.0,351.6686016245998,1422037,165508959,470639,0,0.09578466722902267,14480,45080,470639
e4e4e1ea-00cd,1752.0,3344.479254868755,61040,3949830,1181,576,580.7417442845046,680,685856,1181
e956a7ba-9fba,320.0,550.6793600574057,438906,33766557,61318,512,515.0595909847027,664,31582424,61318
efdb1281-eecb,2662.0,3672.55900621118,52892,591282,161,1016,1016.0993788819876,1080,163592,161
f131b80d-a8db,2668.0,4274.592647058824,74158,8720169,2040,656,660.3098039215686,784,1347032,2040
f1ce7861-9257,2752.0,2752.0,2752,2752,1,304,304.0,304,304,1
f49bfadc-d6ca,1016.0,2396.4848484848485,20054,711756,297,288,266.42424242424244,712,79128,297
fae6fe6b-488c,1277.0,4756.144458643123,8757889,81881783,17216,1664,7109.469795539034,8501952,122396632,17216
fc83ed1c-871b,191.0,247.40579710144928,8832,119497,483,48,48.0,48,23184,483
fc871b35-2f85,10525.5,13930.491452991453,159835,3259735,234,600,603.7264957264957,816,141272,234
