"Name","Self Time","Self Time (CPU)","Total Time","Total Time (CPU)","Invocations"
"java.security.MessageDigest.update (byte)","87,791 ms (28.7%)","87,245 ms (38.1%)","132,507 ms (8.4%)","135,686 ms (10.5%)","273,646,468"
"java.security.MessageDigest$Delegate.engineUpdate (byte)","44,716 ms (14.6%)","48,441 ms (21.2%)","44,716 ms (2.8%)","48,441 ms (3.8%)","273,646,468"
"org.dacapo.harness.FileDigest.getText (java.io.File, boolean, java.io.File)","49,727 ms (16.2%)","45,389 ms (19.8%)","228,429 ms (14.4%)","227,239 ms (17.7%)","6,611"
"java.lang.StringCoding$StringEncoder.encode (char[], int, int)","4,503 ms (1.5%)","4,322 ms (1.9%)","14,080 ms (0.9%)","14,097 ms (1.1%)","6,163,749"
"java.io.BufferedReader.readLine (boolean)","4,112 ms (1.3%)","4,005 ms (1.7%)","8,391 ms (0.5%)","8,433 ms (0.7%)","6,143,349"
"java.lang.StringCoding.encode (String, char[], int, int)","3,359 ms (1.1%)","3,266 ms (1.4%)","28,909 ms (1.8%)","28,844 ms (2.2%)","6,163,749"
"java.lang.ThreadLocal.get ()","3,238 ms (1.1%)","3,144 ms (1.4%)","7,255 ms (0.5%)","7,305 ms (0.6%)","6,163,750"
"java.lang.StringCoding.deref (ThreadLocal)","3,228 ms (1.1%)","3,104 ms (1.4%)","11,465 ms (0.7%)","11,476 ms (0.9%)","6,163,749"
"java.lang.StringCoding.encode (char[], int, int)","3,174 ms (1%)","3,082 ms (1.3%)","32,923 ms (2.1%)","32,852 ms (2.6%)","6,136,739"
"java.lang.String.getBytes ()","2,145 ms (0.7%)","2,141 ms (0.9%)","35,068 ms (2.2%)","34,994 ms (2.7%)","6,136,739"
"java.io.BufferedReader.readLine ()","2,131 ms (0.7%)","2,134 ms (0.9%)","10,522 ms (0.7%)","10,568 ms (0.8%)","6,143,349"
"java.lang.StringCoding.access$000 (int, float)","2,085 ms (0.7%)","2,078 ms (0.9%)","3,057 ms (0.2%)","3,126 ms (0.2%)","6,163,749"
"java.lang.StringCoding.access$300 (byte[], int, java.nio.charset.Charset, boolean)","2,054 ms (0.7%)","2,034 ms (0.9%)","5,221 ms (0.3%)","5,276 ms (0.4%)","6,163,749"
"java.lang.StringCoding.safeTrim (byte[], int, java.nio.charset.Charset, boolean)","2,051 ms (0.7%)","2,030 ms (0.9%)","3,166 ms (0.2%)","3,242 ms (0.3%)","6,163,749"
"java.lang.ThreadLocal$ThreadLocalMap.access$000 (ThreadLocal.ThreadLocalMap, ThreadLocal)","2,026 ms (0.7%)","2,015 ms (0.9%)","3,037 ms (0.2%)","3,115 ms (0.2%)","6,163,750"
"sun.nio.cs.UTF_8$Encoder.encode (char[], int, int, byte[])","1,296 ms (0.4%)","1,370 ms (0.6%)","1,297 ms (0.1%)","1,372 ms (0.1%)","6,163,749"
"java.util.Arrays.copyOfRange (char[], int, int)","1,286 ms (0.4%)","1,369 ms (0.6%)","1,289 ms (0.1%)","1,372 ms (0.1%)","6,160,891"
"java.util.Arrays.copyOf (byte[], int)","1,111 ms (0.4%)","1,209 ms (0.5%)","1,114 ms (0.1%)","1,212 ms (0.1%)","6,163,749"
"java.io.BufferedReader.ensureOpen ()","1,083 ms (0.4%)","1,154 ms (0.5%)","1,083 ms (0.1%)","1,154 ms (0.1%)","6,143,349"
"java.lang.ThreadLocal$ThreadLocalMap.getEntry (ThreadLocal)","1,010 ms (0.3%)","1,099 ms (0.5%)","1,010 ms (0.1%)","1,099 ms (0.1%)","6,163,750"
"java.lang.ref.SoftReference.get ()","982 ms (0.3%)","1,068 ms (0.5%)","982 ms (0.1%)","1,068 ms (0.1%)","6,170,361"
"java.nio.charset.Charset.defaultCharset ()","966 ms (0.3%)","1,052 ms (0.5%)","966 ms (0.1%)","1,052 ms (0.1%)","6,143,350"
"java.lang.StringCoding.scale (int, float)","972 ms (0.3%)","1,047 ms (0.5%)","972 ms (0.1%)","1,047 ms (0.1%)","6,163,749"
"java.lang.ThreadLocal.getMap (Thread)","980 ms (0.3%)","1,046 ms (0.5%)","980 ms (0.1%)","1,046 ms (0.1%)","6,163,750"
"java.io.FileInputStream.read (byte[], int, int)","398 ms (0.1%)","403 ms (0.2%)","398 ms (0%)","403 ms (0%)","44,160"
"sun.nio.cs.UTF_8$Decoder.decodeArrayLoop (java.nio.ByteBuffer, java.nio.CharBuffer)","353 ms (0.1%)","345 ms (0.2%)","637 ms (0%)","634 ms (0%)","81,710"
"java.io.UnixFileSystem.delete (java.io.File)","133 ms (0%)","127 ms (0.1%)","172 ms (0%)","167 ms (0%)","6,600"
"java.io.FileInputStream.open (String)","115 ms (0%)","116 ms (0.1%)","151 ms (0%)","151 ms (0%)","6,611"
"sun.nio.cs.StreamDecoder.implRead (char[], int, int)","119 ms (0%)","115 ms (0.1%)","1,737 ms (0.1%)","1,732 ms (0.1%)","44,160"
"java.lang.AbstractStringBuilder.append (String)","105 ms (0%)","100 ms (0%)","188 ms (0%)","179 ms (0%)","148,405"
"org.dacapo.harness.Benchmark.validate (String)","89.6 ms (0%)","89.0 ms (0%)","229,278 ms (14.5%)","228,083 ms (17.7%)","101"
"sun.nio.cs.StreamDecoder.readBytes ()","96.6 ms (0%)","87.8 ms (0%)","665 ms (0%)","664 ms (0.1%)","44,160"
"org.dacapo.lusearch.Search.main (String[])","70,171 ms (22.9%)","86.3 ms (0%)","73,129 ms (4.6%)","146 ms (0%)","100"
"sun.nio.cs.UTF_8.updatePositions (java.nio.Buffer, int, java.nio.Buffer, int)","84.7 ms (0%)","80.3 ms (0%)","140 ms (0%)","139 ms (0%)","82,511"
"org.dacapo.harness.Digest.toString (byte[])","83.6 ms (0%)","77.4 ms (0%)","435 ms (0%)","433 ms (0%)","6,610"
"java.nio.HeapByteBuffer.compact ()","76.6 ms (0%)","72.5 ms (0%)","134 ms (0%)","134 ms (0%)","44,160"
"java.nio.charset.CharsetDecoder.decode (java.nio.ByteBuffer, java.nio.CharBuffer, boolean)","73.0 ms (0%)","69.9 ms (0%)","836 ms (0.1%)","834 ms (0.1%)","81,710"
"sun.nio.cs.UTF_8$Decoder.decodeLoop (java.nio.ByteBuffer, java.nio.CharBuffer)","68.1 ms (0%)","66.4 ms (0%)","732 ms (0%)","731 ms (0.1%)","81,710"
"java.lang.String.charAt (int)","60.2 ms (0%)","65.7 ms (0%)","60.2 ms (0%)","65.7 ms (0%)","420,724"
"java.io.UnixFileSystem.normalize (String)","69.8 ms (0%)","64.5 ms (0%)","124 ms (0%)","123 ms (0%)","20,022"
"java.lang.String.length ()","56.5 ms (0%)","61.4 ms (0%)","56.5 ms (0%)","61.4 ms (0%)","362,067"
"java.nio.Buffer.position (int)","51.7 ms (0%)","55.6 ms (0%)","51.7 ms (0%)","55.6 ms (0%)","298,304"
"java.nio.ByteBuffer.arrayOffset ()","46.0 ms (0%)","49.8 ms (0%)","46.0 ms (0%)","49.8 ms (0%)","292,494"
"java.lang.Integer.toUnsignedString0 (int, int)","49.7 ms (0%)","49.2 ms (0%)","72.9 ms (0%)","74.1 ms (0%)","132,200"
"java.lang.StringBuffer.append (String)","47.0 ms (0%)","46.5 ms (0%)","210 ms (0%)","210 ms (0%)","140,817"
"java.lang.Integer.toHexString (int)","44.6 ms (0%)","44.9 ms (0%)","117 ms (0%)","119 ms (0%)","132,200"
"java.nio.CharBuffer.arrayOffset ()","39.4 ms (0%)","42.5 ms (0%)","39.4 ms (0%)","42.5 ms (0%)","247,533"
"java.io.UnixFileSystem.getBooleanAttributes (java.io.File)","42.0 ms (0%)","42.0 ms (0%)","126 ms (0%)","125 ms (0%)","13,200"
"java.lang.AbstractStringBuilder.ensureCapacityInternal (int)","39.0 ms (0%)","41.6 ms (0%)","41.4 ms (0%)","43.9 ms (0%)","224,622"
"java.nio.CharBuffer.wrap (char[], int, int)","39.7 ms (0%)","39.5 ms (0%)","56.8 ms (0%)","56.8 ms (0%)","44,961"
"sun.nio.cs.UTF_8.access$200 (java.nio.Buffer, int, java.nio.Buffer, int)","37.8 ms (0%)","38.5 ms (0%)","177 ms (0%)","178 ms (0%)","82,511"
"java.lang.Thread.start ()","2,895 ms (0.9%)","33.6 ms (0%)","2,895 ms (0.2%)","34.2 ms (0%)","800"
"java.util.HashMap.get (Object)","34.6 ms (0%)","33.3 ms (0%)","61.1 ms (0%)","61.0 ms (0%)","60,786"
"java.lang.AbstractStringBuilder.append (char[], int, int)","32.3 ms (0%)","32.5 ms (0%)","44.6 ms (0%)","45.5 ms (0%)","60,878"
"java.io.FileOutputStream.write (byte[], int, int)","222 ms (0.1%)","32.1 ms (0%)","222 ms (0%)","32.1 ms (0%)","8,514"
"java.lang.Class.getConstructor (Class[])","31.2 ms (0%)","31.4 ms (0%)","89.9 ms (0%)","90.0 ms (0%)","6,611"
"java.io.FileInputStream.access$000 (java.io.FileInputStream)","30.9 ms (0%)","31.1 ms (0%)","30.9 ms (0%)","31.1 ms (0%)","6,610"
"sun.nio.cs.UTF_8$Decoder.xflow (java.nio.Buffer, int, int, java.nio.Buffer, int, int)","31.2 ms (0%)","30.0 ms (0%)","207 ms (0%)","206 ms (0%)","81,710"
"java.lang.StringBuilder.append (char[], int, int)","30.5 ms (0%)","29.9 ms (0%)","75.1 ms (0%)","75.5 ms (0%)","60,878"
"sun.nio.cs.StreamDecoder.read (char[], int, int)","30.7 ms (0%)","29.9 ms (0%)","1,776 ms (0.1%)","1,771 ms (0.1%)","44,160"
"java.nio.charset.CoderResult.isUnderflow ()","26.1 ms (0%)","29.0 ms (0%)","26.1 ms (0%)","29.0 ms (0%)","165,022"
"java.io.BufferedReader.fill ()","27.8 ms (0%)","28.1 ms (0%)","1,822 ms (0.1%)","1,817 ms (0.1%)","44,160"
"java.util.LinkedHashMap.get (Object)","28.0 ms (0%)","26.8 ms (0%)","45.7 ms (0%)","46.0 ms (0%)","52,874"
"java.lang.String.getChars (int, int, char[], int)","33.8 ms (0%)","26.7 ms (0%)","33.8 ms (0%)","26.7 ms (0%)","149,206"
"java.io.FileInputStream.available ()","24.8 ms (0%)","25.2 ms (0%)","24.8 ms (0%)","25.2 ms (0%)","6,509"
"java.util.concurrent.ConcurrentHashMap.get (Object)","25.7 ms (0%)","25.2 ms (0%)","33.0 ms (0%)","33.2 ms (0%)","13,222"
"org.dacapo.parser.Config.getThreadCount (String)","24.9 ms (0%)","24.9 ms (0%)","27.0 ms (0%)","27.0 ms (0%)","1,000"
"java.nio.Buffer.remaining ()","22.4 ms (0%)","24.0 ms (0%)","22.4 ms (0%)","24.0 ms (0%)","126,671"
"java.util.HashMap.getNode (int, Object)","22.4 ms (0%)","23.6 ms (0%)","22.7 ms (0%)","23.8 ms (0%)","113,660"
"java.util.HashMap.hash (Object)","21.4 ms (0%)","22.9 ms (0%)","21.4 ms (0%)","22.9 ms (0%)","113,660"
"java.nio.ByteBuffer.array ()","21.0 ms (0%)","22.4 ms (0%)","21.0 ms (0%)","22.4 ms (0%)","127,472"
"java.io.FileOutputStream.write (int)","23.6 ms (0%)","22.4 ms (0%)","23.6 ms (0%)","22.4 ms (0%)","7,713"
"java.lang.Integer.formatUnsignedInt (int, int, char[], int, int)","20.7 ms (0%)","22.2 ms (0%)","20.7 ms (0%)","22.2 ms (0%)","132,200"
"org.dacapo.parser.Config.getSize (String)","20.6 ms (0%)","20.7 ms (0%)","74.7 ms (0%)","74.7 ms (0%)","54,175"
"sun.nio.cs.StreamDecoder.forInputStreamReader (java.io.InputStream, Object, String)","20.4 ms (0%)","19.4 ms (0%)","67.0 ms (0%)","66.5 ms (0%)","6,611"
"java.lang.Class.getConstructor0 (Class[], int)","19.2 ms (0%)","19.0 ms (0%)","53.2 ms (0%)","53.4 ms (0%)","6,611"
"java.nio.charset.CoderResult.isOverflow ()","18.0 ms (0%)","18.9 ms (0%)","18.0 ms (0%)","18.9 ms (0%)","82,511"
"java.nio.Buffer.limit (int)","18.3 ms (0%)","18.5 ms (0%)","18.3 ms (0%)","18.5 ms (0%)","95,732"
"java.io.InputStreamReader.read (char[], int, int)","18.5 ms (0%)","18.4 ms (0%)","1,795 ms (0.1%)","1,789 ms (0.1%)","44,160"
"java.nio.HeapByteBuffer.ix (int)","17.0 ms (0%)","18.2 ms (0%)","17.0 ms (0%)","18.2 ms (0%)","88,320"
"org.dacapo.parser.Config$Size.getOutputFile (String)","18.2 ms (0%)","18.0 ms (0%)","64.0 ms (0%)","64.1 ms (0%)","52,874"
"org.dacapo.harness.Benchmark.postIterationCleanup (String)","18.9 ms (0%)","17.8 ms (0%)","432 ms (0%)","424 ms (0%)","100"
"java.nio.Buffer.hasRemaining ()","15.3 ms (0%)","16.6 ms (0%)","15.3 ms (0%)","16.6 ms (0%)","89,121"
"java.security.MessageDigest$Delegate.engineDigest ()","16.5 ms (0%)","16.4 ms (0%)","17.1 ms (0%)","17.0 ms (0%)","6,610"
"java.security.Provider$Service.newInstance (Object)","16.5 ms (0%)","16.1 ms (0%)","132 ms (0%)","132 ms (0%)","6,611"
"java.lang.String.equals (Object)","15.3 ms (0%)","16.0 ms (0%)","15.3 ms (0%)","16.0 ms (0%)","67,436"
"java.nio.ByteBuffer.hasArray ()","14.2 ms (0%)","15.3 ms (0%)","14.2 ms (0%)","15.3 ms (0%)","82,511"
"java.lang.reflect.Constructor.getParameterTypes ()","14.9 ms (0%)","15.1 ms (0%)","14.9 ms (0%)","15.1 ms (0%)","6,611"
"java.nio.CharBuffer.hasArray ()","13.9 ms (0%)","15.1 ms (0%)","13.9 ms (0%)","15.1 ms (0%)","82,511"
"java.lang.StringBuilder.toString ()","14.7 ms (0%)","15.0 ms (0%)","21.8 ms (0%)","22.7 ms (0%)","34,381"
"java.nio.CharBuffer.array ()","13.7 ms (0%)","14.8 ms (0%)","13.7 ms (0%)","14.8 ms (0%)","82,511"
"java.lang.reflect.Constructor.newInstance (Object[])","13.1 ms (0%)","13.2 ms (0%)","14.3 ms (0%)","14.5 ms (0%)","6,611"
"org.dacapo.harness.Benchmark.fileInScratch (String)","13.0 ms (0%)","12.7 ms (0%)","69.2 ms (0%)","68.9 ms (0%)","6,611"
"java.util.regex.Pattern.compile ()","13.8 ms (0%)","12.6 ms (0%)","43.8 ms (0%)","43.0 ms (0%)","2,000"
"java.security.Provider.getService (String, String)","12.6 ms (0%)","12.4 ms (0%)","43.7 ms (0%)","43.8 ms (0%)","6,611"
"sun.security.jca.GetInstance.getInstance (String, Class, String)","11.4 ms (0%)","11.1 ms (0%)","228 ms (0%)","227 ms (0%)","6,611"
"java.io.UnixFileSystem.prefixLength (String)","11.1 ms (0%)","10.7 ms (0%)","17.2 ms (0%)","17.4 ms (0%)","20,022"
"java.nio.ByteBuffer.allocate (int)","10.6 ms (0%)","10.6 ms (0%)","14.2 ms (0%)","14.2 ms (0%)","6,611"
"java.io.UnixFileSystem.resolve (String, String)","10.7 ms (0%)","10.5 ms (0%)","28.4 ms (0%)","28.5 ms (0%)","16,029"
"org.dacapo.harness.FileDigest.get (String, boolean, boolean, java.io.File)","10.3 ms (0%)","10.4 ms (0%)","228,498 ms (14.4%)","227,308 ms (17.7%)","6,611"
"sun.security.jca.GetInstance.getInstance (java.security.Provider.Service, Class)","10.1 ms (0%)","10.2 ms (0%)","148 ms (0%)","148 ms (0%)","6,611"
"org.dacapo.parser.Config.hasLines (String, String)","10.5 ms (0%)","10.2 ms (0%)","38.0 ms (0%)","37.9 ms (0%)","6,610"
"java.nio.Buffer.discardMark ()","8.71 ms (0%)","9.41 ms (0%)","8.71 ms (0%)","9.41 ms (0%)","44,160"
"java.security.Security.getImpl (String, String, String)","9.55 ms (0%)","9.39 ms (0%)","256 ms (0%)","256 ms (0%)","6,611"
"java.nio.Buffer.flip ()","8.79 ms (0%)","9.31 ms (0%)","8.79 ms (0%)","9.31 ms (0%)","51,572"
"sun.nio.cs.StreamDecoder.ensureOpen ()","8.57 ms (0%)","9.13 ms (0%)","8.57 ms (0%)","9.13 ms (0%)","44,160"
"sun.nio.cs.UTF_8.newDecoder ()","8.85 ms (0%)","8.72 ms (0%)","16.7 ms (0%)","16.7 ms (0%)","6,611"
"java.io.FileDescriptor.closeAll (java.io.Closeable)","8.62 ms (0%)","8.70 ms (0%)","44.2 ms (0%)","44.2 ms (0%)","6,812"
"org.dacapo.harness.TeeOutputStream.write (int)","35.8 ms (0%)","8.58 ms (0%)","343 ms (0%)","96.8 ms (0%)","7,713"
"java.lang.String.indexOf (int)","8.32 ms (0%)","8.29 ms (0%)","12.1 ms (0%)","12.4 ms (0%)","18,016"
"sun.security.jca.ProviderList.getService (String, String)","8.12 ms (0%)","7.86 ms (0%)","58.6 ms (0%)","58.4 ms (0%)","6,611"
"java.lang.System.getSecurityManager ()","9.43 ms (0%)","7.78 ms (0%)","9.43 ms (0%)","7.78 ms (0%)","40,646"
"java.lang.Class.privateGetDeclaredConstructors (boolean)","7.64 ms (0%)","7.68 ms (0%)","15.6 ms (0%)","15.7 ms (0%)","6,611"
"java.util.Collections$UnmodifiableCollection$1.next ()","7.55 ms (0%)","7.67 ms (0%)","17.0 ms (0%)","17.1 ms (0%)","13,211"
"java.io.File.isInvalid ()","7.12 ms (0%)","7.47 ms (0%)","16.2 ms (0%)","16.7 ms (0%)","27,011"
"java.util.Collections$UnmodifiableCollection$1.hasNext ()","7.47 ms (0%)","7.39 ms (0%)","9.90 ms (0%)","9.92 ms (0%)","13,411"
"java.security.MessageDigest.getInstance (String)","7.38 ms (0%)","7.32 ms (0%)","264 ms (0%)","263 ms (0%)","6,611"
"java.lang.Math.min (int, int)","6.93 ms (0%)","7.24 ms (0%)","6.93 ms (0%)","7.24 ms (0%)","34,023"
"java.security.AccessController.getContext ()","7.42 ms (0%)","7.8 ms (0%)","10.8 ms (0%)","10.3 ms (0%)","800"
"java.io.File.getName ()","7.56 ms (0%)","7.1 ms (0%)","21.5 ms (0%)","21.1 ms (0%)","13,200"
"java.io.FileInputStream.close ()","6.74 ms (0%)","6.75 ms (0%)","49.7 ms (0%)","49.7 ms (0%)","6,610"
"java.io.PrintStream.flush ()","8.40 ms (0%)","6.72 ms (0%)","237 ms (0%)","44.3 ms (0%)","8,115"
"java.io.PrintStream.write (int)","8.17 ms (0%)","6.53 ms (0%)","16.1 ms (0%)","11.8 ms (0%)","7,713"
"org.dacapo.parser.Config.hasBytes (String, String)","6.65 ms (0%)","6.47 ms (0%)","22.8 ms (0%)","22.8 ms (0%)","6,610"
"java.util.regex.Matcher.appendReplacement (StringBuffer, String)","7.1 ms (0%)","6.34 ms (0%)","23.0 ms (0%)","22.4 ms (0%)","400"
"org.dacapo.parser.Config.hasDigest (String, String)","6.67 ms (0%)","6.31 ms (0%)","23.5 ms (0%)","23.4 ms (0%)","6,611"
"java.io.FilterOutputStream.write (int)","6.75 ms (0%)","6.19 ms (0%)","22.9 ms (0%)","18.1 ms (0%)","7,713"
"sun.security.jca.Providers.getProviderList ()","6.37 ms (0%)","6.16 ms (0%)","9.69 ms (0%)","9.56 ms (0%)","6,611"
"java.lang.String.codePointAt (int)","6.25 ms (0%)","6.4 ms (0%)","14.8 ms (0%)","14.8 ms (0%)","20,000"
"java.util.regex.Pattern.isSupplementary (int)","6.19 ms (0%)","5.98 ms (0%)","8.87 ms (0%)","8.86 ms (0%)","20,000"
"java.lang.Character.codePointAtImpl (char[], int, int)","5.77 ms (0%)","5.87 ms (0%)","8.57 ms (0%)","8.82 ms (0%)","20,000"
"sun.security.jca.GetInstance.checkSuperClass (java.security.Provider.Service, Class, Class)","5.86 ms (0%)","5.84 ms (0%)","5.86 ms (0%)","5.84 ms (0%)","6,611"
"java.util.LinkedHashMap$LinkedKeyIterator.next ()","5.93 ms (0%)","5.80 ms (0%)","9.49 ms (0%)","9.50 ms (0%)","13,211"
"java.io.File.delete ()","7.14 ms (0%)","5.73 ms (0%)","181 ms (0%)","175 ms (0%)","6,600"
"java.security.Security.getSpiClass (String)","5.51 ms (0%)","5.47 ms (0%)","16.3 ms (0%)","16.3 ms (0%)","6,611"
"org.dacapo.harness.Benchmark.deleteFile (java.io.File)","5.55 ms (0%)","5.32 ms (0%)","332 ms (0%)","325 ms (0%)","6,600"
"java.io.BufferedOutputStream.flush ()","7.3 ms (0%)","5.18 ms (0%)","236 ms (0%)","42.4 ms (0%)","9,404"
"sun.security.jca.ProviderList.getProvider (int)","5.17 ms (0%)","5.14 ms (0%)","6.70 ms (0%)","6.68 ms (0%)","6,611"
"java.io.ExpiringCache.clear ()","5.9 ms (0%)","5.13 ms (0%)","11.5 ms (0%)","11.7 ms (0%)","13,600"
"sun.nio.cs.StreamDecoder.inReady ()","5.25 ms (0%)","5.7 ms (0%)","30.1 ms (0%)","30.3 ms (0%)","6,509"
"java.io.File.exists ()","5.20 ms (0%)","5.6 ms (0%)","80.6 ms (0%)","80.3 ms (0%)","6,600"
"java.io.BufferedReader.close ()","4.98 ms (0%)","4.91 ms (0%)","68.5 ms (0%)","68.6 ms (0%)","6,610"
"java.io.BufferedOutputStream.flushBuffer ()","6.68 ms (0%)","4.86 ms (0%)","229 ms (0%)","37.1 ms (0%)","9,405"
"java.io.File.isDirectory ()","4.92 ms (0%)","4.80 ms (0%)","64.6 ms (0%)","64.4 ms (0%)","6,600"
"sun.nio.cs.StreamDecoder.close ()","4.66 ms (0%)","4.78 ms (0%)","59.0 ms (0%)","59.1 ms (0%)","6,610"
"sun.nio.cs.StreamDecoder.implClose ()","4.72 ms (0%)","4.63 ms (0%)","54.4 ms (0%)","54.4 ms (0%)","6,610"
"java.lang.String.substring (int)","4.71 ms (0%)","4.57 ms (0%)","7.5 ms (0%)","7.10 ms (0%)","13,200"
"java.util.LinkedHashMap.clear ()","4.51 ms (0%)","4.54 ms (0%)","6.40 ms (0%)","6.59 ms (0%)","13,600"
"java.util.concurrent.ConcurrentHashMap.isEmpty ()","4.47 ms (0%)","4.52 ms (0%)","5.91 ms (0%)","5.97 ms (0%)","6,611"
"java.lang.StringBuilder.append (char)","4.70 ms (0%)","4.52 ms (0%)","11.0 ms (0%)","10.9 ms (0%)","13,142"
"java.io.InputStreamReader.close ()","4.47 ms (0%)","4.50 ms (0%)","63.5 ms (0%)","63.7 ms (0%)","6,610"
"java.security.MessageDigest.digest ()","4.56 ms (0%)","4.45 ms (0%)","21.6 ms (0%)","21.4 ms (0%)","6,610"
"java.io.FilterOutputStream.flush ()","24.6 ms (0%)","4.38 ms (0%)","261 ms (0%)","48.2 ms (0%)","7,915"
"java.lang.Class.reflectionData ()","4.37 ms (0%)","4.36 ms (0%)","5.74 ms (0%)","5.80 ms (0%)","6,611"
"java.lang.String.lastIndexOf (int)","4.41 ms (0%)","4.35 ms (0%)","6.90 ms (0%)","7.3 ms (0%)","13,200"
"java.nio.charset.Charset.isSupported (String)","4.26 ms (0%)","4.26 ms (0%)","6.48 ms (0%)","6.58 ms (0%)","6,611"
"org.dacapo.harness.Digest.create ()","4.28 ms (0%)","4.21 ms (0%)","268 ms (0%)","267 ms (0%)","6,611"
"java.io.FileOutputStream.open (String, boolean)","5.92 ms (0%)","4.19 ms (0%)","6.88 ms (0%)","5.14 ms (0%)","200"
"java.lang.String.indexOf (int, int)","3.78 ms (0%)","4.11 ms (0%)","3.78 ms (0%)","4.11 ms (0%)","18,016"
"java.io.PrintStream.ensureOpen ()","3.88 ms (0%)","4.7 ms (0%)","3.88 ms (0%)","4.7 ms (0%)","17,430"
"java.lang.AbstractStringBuilder.append (char)","4.6 ms (0%)","3.95 ms (0%)","6.36 ms (0%)","6.38 ms (0%)","13,142"
"org.dacapo.parser.Config.checkExists (String, String)","3.91 ms (0%)","3.88 ms (0%)","18.9 ms (0%)","18.7 ms (0%)","6,610"
"java.lang.String.replace (CharSequence, CharSequence)","4.8 ms (0%)","3.84 ms (0%)","94.4 ms (0%)","92.4 ms (0%)","2,000"
"java.lang.System.gc ()","2,910 ms (1%)","3.83 ms (0%)","2,910 ms (0.2%)","3.86 ms (0%)","100"
"org.dacapo.parser.Config.isTextFile (String, String)","4.1 ms (0%)","3.79 ms (0%)","20.0 ms (0%)","20.0 ms (0%)","6,611"
"org.dacapo.parser.Config.getDigest (String, String)","3.84 ms (0%)","3.78 ms (0%)","19.6 ms (0%)","19.2 ms (0%)","6,611"
"org.dacapo.parser.Config.filterScratch (String, String)","3.82 ms (0%)","3.75 ms (0%)","19.3 ms (0%)","19.2 ms (0%)","6,611"
"java.util.LinkedHashMap$LinkedHashIterator.nextNode ()","3.55 ms (0%)","3.69 ms (0%)","3.55 ms (0%)","3.69 ms (0%)","13,211"
"org.dacapo.parser.Config.isKept (String, String)","3.81 ms (0%)","3.68 ms (0%)","20.6 ms (0%)","20.5 ms (0%)","6,600"
"java.nio.charset.CharsetDecoder.replaceWith (String)","3.73 ms (0%)","3.68 ms (0%)","4.92 ms (0%)","5.1 ms (0%)","6,611"
"java.lang.Class.checkMemberAccess (int, Class, boolean)","3.98 ms (0%)","3.65 ms (0%)","5.39 ms (0%)","5.10 ms (0%)","6,611"
"java.lang.reflect.Method.invoke (Object, Object[])","3.78 ms (0%)","3.58 ms (0%)","73,133 ms (4.6%)","150 ms (0%)","100"
"java.lang.Thread.init (ThreadGroup, Runnable, String, long, java.security.AccessControlContext, boolean)","5.25 ms (0%)","3.57 ms (0%)","39.7 ms (0%)","17.9 ms (0%)","800"
"java.lang.StringBuilder.append (String)","3.84 ms (0%)","3.52 ms (0%)","29.1 ms (0%)","19.2 ms (0%)","7,588"
"java.security.Provider$Service.getImplClass ()","3.68 ms (0%)","3.47 ms (0%)","3.68 ms (0%)","3.47 ms (0%)","6,611"
"java.io.FileInputStream$1.close ()","3.69 ms (0%)","3.42 ms (0%)","34.6 ms (0%)","34.5 ms (0%)","6,610"
"java.nio.charset.Charset.lookup (String)","3.28 ms (0%)","3.41 ms (0%)","3.57 ms (0%)","3.74 ms (0%)","13,222"
"java.lang.StringBuffer.toString ()","3.27 ms (0%)","3.14 ms (0%)","4.78 ms (0%)","4.75 ms (0%)","7,010"
"java.util.concurrent.ConcurrentHashMap.tabAt (java.util.concurrent.ConcurrentHashMap.Node[], int)","2.74 ms (0%)","3.5 ms (0%)","2.74 ms (0%)","3.5 ms (0%)","13,226"
"java.lang.Character.isHighSurrogate (char)","2.79 ms (0%)","2.95 ms (0%)","2.79 ms (0%)","2.95 ms (0%)","20,000"
"java.lang.Character.isSurrogate (char)","2.68 ms (0%)","2.87 ms (0%)","2.68 ms (0%)","2.87 ms (0%)","20,000"
"java.lang.Character.charCount (int)","2.55 ms (0%)","2.81 ms (0%)","2.55 ms (0%)","2.81 ms (0%)","20,000"
"java.util.regex.Matcher.replaceAll (String)","2.78 ms (0%)","2.73 ms (0%)","37.0 ms (0%)","35.9 ms (0%)","2,000"
"sun.security.jca.GetInstance$Instance.toArray ()","2.45 ms (0%)","2.64 ms (0%)","2.45 ms (0%)","2.64 ms (0%)","6,611"
"java.lang.String.lastIndexOf (int, int)","2.38 ms (0%)","2.57 ms (0%)","2.48 ms (0%)","2.68 ms (0%)","13,200"
"java.nio.charset.Charset.atBugLevel (String)","2.55 ms (0%)","2.56 ms (0%)","2.99 ms (0%)","3.2 ms (0%)","6,611"
"sun.nio.cs.StreamEncoder.writeBytes ()","2.62 ms (0%)","2.53 ms (0%)","11.1 ms (0%)","11.0 ms (0%)","801"
"java.util.LinkedHashMap$LinkedHashIterator.hasNext ()","2.42 ms (0%)","2.53 ms (0%)","2.42 ms (0%)","2.53 ms (0%)","13,411"
"java.util.concurrent.ConcurrentHashMap.spread (int)","2.36 ms (0%)","2.51 ms (0%)","2.36 ms (0%)","2.51 ms (0%)","13,224"
"org.dacapo.parser.Config.preprocessArgs (String, java.io.File)","2.64 ms (0%)","2.49 ms (0%)","133 ms (0%)","130 ms (0%)","100"
"java.nio.charset.Charset.forName (String)","2.38 ms (0%)","2.39 ms (0%)","3.74 ms (0%)","3.81 ms (0%)","6,611"
"java.io.UnixFileSystem.resolve (java.io.File)","2.43 ms (0%)","2.32 ms (0%)","15.5 ms (0%)","15.1 ms (0%)","2,818"
"java.lang.System.getProperty (String)","2.50 ms (0%)","2.27 ms (0%)","7.10 ms (0%)","6.99 ms (0%)","2,818"
"java.io.UnixFileSystem.rename (java.io.File, java.io.File)","2.20 ms (0%)","2.23 ms (0%)","4.60 ms (0%)","4.52 ms (0%)","200"
"java.lang.Class.checkInitted ()","2.27 ms (0%)","2.21 ms (0%)","2.27 ms (0%)","2.21 ms (0%)","6,611"
"java.util.HashMap.clear ()","1.89 ms (0%)","2.5 ms (0%)","1.89 ms (0%)","2.5 ms (0%)","13,600"
"java.util.regex.Pattern$BnM.match (java.util.regex.Matcher, int, CharSequence)","2.14 ms (0%)","2.4 ms (0%)","3.52 ms (0%)","3.37 ms (0%)","2,400"
"sun.security.jca.Providers.getThreadProviderList ()","1.94 ms (0%)","1.98 ms (0%)","1.94 ms (0%)","1.98 ms (0%)","6,611"
"org.dacapo.harness.Benchmark.run (org.dacapo.harness.Callback, String)","2.21 ms (0%)","1.97 ms (0%)","303,455 ms (19.1%)","226,384 ms (17.6%)","100"
"java.lang.Class.arrayContentsEq (Object[], Object[])","1.88 ms (0%)","1.95 ms (0%)","1.88 ms (0%)","1.95 ms (0%)","6,611"
"java.io.BufferedOutputStream.write (int)","1.88 ms (0%)","1.86 ms (0%)","1.88 ms (0%)","1.86 ms (0%)","7,713"
"org.dacapo.harness.FileDigest.replaceAllFixed (String, String, String)","1.86 ms (0%)","1.85 ms (0%)","4.32 ms (0%)","4.38 ms (0%)","4,854"
"sun.nio.cs.UTF_8$Encoder.encodeArrayLoop (java.nio.CharBuffer, java.nio.ByteBuffer)","1.84 ms (0%)","1.83 ms (0%)","5.17 ms (0%)","5.17 ms (0%)","801"
"java.security.AccessControlContext.optimize ()","1.93 ms (0%)","1.81 ms (0%)","3.39 ms (0%)","3.29 ms (0%)","800"
"java.lang.System.setOut (java.io.PrintStream)","1.76 ms (0%)","1.77 ms (0%)","2.6 ms (0%)","2.8 ms (0%)","301"
"java.io.PrintStream.write (byte[], int, int)","1.72 ms (0%)","1.76 ms (0%)","7.30 ms (0%)","7.35 ms (0%)","801"
"org.dacapo.harness.Callback.complete (String, boolean, boolean)","1.69 ms (0%)","1.71 ms (0%)","27.0 ms (0%)","27.0 ms (0%)","100"
"java.security.Provider$ServiceKey.matches (String, String)","1.58 ms (0%)","1.70 ms (0%)","1.58 ms (0%)","1.70 ms (0%)","6,611"
"java.util.Hashtable.clone ()","1.69 ms (0%)","1.70 ms (0%)","3.18 ms (0%)","3.17 ms (0%)","100"
"java.nio.charset.CharsetDecoder.onUnmappableCharacter (java.nio.charset.CodingErrorAction)","1.52 ms (0%)","1.63 ms (0%)","1.52 ms (0%)","1.63 ms (0%)","6,611"
"java.lang.AbstractStringBuilder.append (CharSequence, int, int)","1.77 ms (0%)","1.62 ms (0%)","2.86 ms (0%)","2.78 ms (0%)","800"
"java.lang.String.indexOf (String, int)","1.60 ms (0%)","1.59 ms (0%)","2.45 ms (0%)","2.53 ms (0%)","4,854"
"java.io.PrintStream.write (String)","1.71 ms (0%)","1.59 ms (0%)","26.7 ms (0%)","26.4 ms (0%)","600"
"java.util.regex.Pattern.matcher (CharSequence)","1.62 ms (0%)","1.58 ms (0%)","3.84 ms (0%)","3.85 ms (0%)","2,000"
"java.io.FileDescriptor.attach (java.io.Closeable)","1.52 ms (0%)","1.58 ms (0%)","1.52 ms (0%)","1.58 ms (0%)","6,811"
"java.nio.charset.CharsetDecoder.onMalformedInput (java.nio.charset.CodingErrorAction)","1.49 ms (0%)","1.58 ms (0%)","1.49 ms (0%)","1.58 ms (0%)","6,611"
"java.util.regex.Matcher.getTextLength ()","1.58 ms (0%)","1.55 ms (0%)","2.21 ms (0%)","2.33 ms (0%)","4,400"
"org.dacapo.harness.Callback.start (String, boolean)","1.56 ms (0%)","1.54 ms (0%)","18.1 ms (0%)","17.8 ms (0%)","100"
"java.lang.Math.max (int, int)","1.39 ms (0%)","1.54 ms (0%)","1.39 ms (0%)","1.54 ms (0%)","9,261"
"java.lang.Integer.numberOfLeadingZeros (int)","1.40 ms (0%)","1.54 ms (0%)","1.40 ms (0%)","1.54 ms (0%)","6,440"
"sun.security.jca.ProviderConfig.getProvider ()","1.52 ms (0%)","1.53 ms (0%)","1.52 ms (0%)","1.53 ms (0%)","6,611"
"java.lang.Class.getReflectionFactory ()","1.52 ms (0%)","1.53 ms (0%)","1.52 ms (0%)","1.53 ms (0%)","6,611"
"java.nio.charset.CharsetDecoder.reset ()","1.49 ms (0%)","1.51 ms (0%)","1.49 ms (0%)","1.51 ms (0%)","6,610"
"java.util.regex.Matcher.reset ()","1.56 ms (0%)","1.50 ms (0%)","3.55 ms (0%)","3.58 ms (0%)","4,000"
"sun.nio.cs.StreamEncoder.implWrite (char[], int, int)","1.53 ms (0%)","1.48 ms (0%)","11.4 ms (0%)","11.2 ms (0%)","801"
"java.util.Hashtable$Entry.clone ()","1.48 ms (0%)","1.47 ms (0%)","1.48 ms (0%)","1.47 ms (0%)","5,400"
"java.util.regex.Pattern.compile (String, int)","1.49 ms (0%)","1.45 ms (0%)","45.6 ms (0%)","44.8 ms (0%)","2,000"
"java.lang.AbstractStringBuilder.append (int)","5.3 ms (0%)","1.44 ms (0%)","6.2 ms (0%)","2.45 ms (0%)","1,199"
"java.util.concurrent.ConcurrentHashMap.sumCount ()","1.43 ms (0%)","1.44 ms (0%)","1.43 ms (0%)","1.44 ms (0%)","6,611"
"org.dacapo.parser.Config$OutputFile.hasLines ()","1.32 ms (0%)","1.43 ms (0%)","1.32 ms (0%)","1.43 ms (0%)","6,610"
"sun.security.jca.Providers.getSystemProviderList ()","1.37 ms (0%)","1.41 ms (0%)","1.37 ms (0%)","1.41 ms (0%)","6,611"
"java.util.Arrays.copyOf (char[], int)","1.42 ms (0%)","1.37 ms (0%)","1.50 ms (0%)","1.45 ms (0%)","4,839"
"java.lang.reflect.Modifier.isPublic (int)","1.29 ms (0%)","1.33 ms (0%)","1.29 ms (0%)","1.33 ms (0%)","6,711"
"org.dacapo.parser.Config$OutputFile.hasBytes ()","1.27 ms (0%)","1.33 ms (0%)","1.27 ms (0%)","1.33 ms (0%)","6,610"
"java.util.regex.Pattern.has (int)","1.24 ms (0%)","1.33 ms (0%)","1.24 ms (0%)","1.33 ms (0%)","8,000"
"org.apache.commons.cli.CommandLine.getOptionValues (String)","1.32 ms (0%)","1.31 ms (0%)","3.8 ms (0%)","3.5 ms (0%)","200"
"java.security.Provider.checkInitialized ()","1.21 ms (0%)","1.24 ms (0%)","1.21 ms (0%)","1.24 ms (0%)","6,611"
"java.io.File.getAbsolutePath ()","1.24 ms (0%)","1.22 ms (0%)","16.7 ms (0%)","16.3 ms (0%)","2,818"
"java.util.regex.Pattern.newSlice (int[], int, boolean)","1.27 ms (0%)","1.22 ms (0%)","1.55 ms (0%)","1.53 ms (0%)","2,000"
"org.dacapo.parser.Config$OutputFile.hasDigest ()","1.10 ms (0%)","1.22 ms (0%)","1.10 ms (0%)","1.22 ms (0%)","6,611"
"java.nio.Bits.byteOrder ()","1.11 ms (0%)","1.22 ms (0%)","1.11 ms (0%)","1.22 ms (0%)","6,611"
"java.io.BufferedWriter.flushBuffer ()","1.12 ms (0%)","1.21 ms (0%)","14.2 ms (0%)","14.1 ms (0%)","801"
"java.security.Provider.access$1000 ()","1.11 ms (0%)","1.20 ms (0%)","1.11 ms (0%)","1.20 ms (0%)","6,611"
"java.util.Properties.getProperty (String)","1.15 ms (0%)","1.19 ms (0%)","2.71 ms (0%)","2.77 ms (0%)","2,818"
"java.util.regex.Matcher.search (int)","1.21 ms (0%)","1.18 ms (0%)","4.73 ms (0%)","4.56 ms (0%)","2,400"
"java.util.regex.Matcher.quoteReplacement (String)","1.19 ms (0%)","1.11 ms (0%)","3.22 ms (0%)","3.22 ms (0%)","2,000"
"java.util.Hashtable.get (Object)","1.11 ms (0%)","1.11 ms (0%)","1.56 ms (0%)","1.57 ms (0%)","2,818"
"java.lang.Thread.setPriority (int)","1.9 ms (0%)","1.6 ms (0%)","1.79 ms (0%)","1.69 ms (0%)","800"
"java.nio.charset.CharsetEncoder.encode (java.nio.CharBuffer, java.nio.ByteBuffer, boolean)","1.6 ms (0%)","1.5 ms (0%)","8.21 ms (0%)","8.3 ms (0%)","801"
"java.lang.System.checkKey (String)","1.6 ms (0%)","1.4 ms (0%)","1.55 ms (0%)","1.57 ms (0%)","2,918"
"java.util.regex.Pattern$BnM.optimize (java.util.regex.Pattern.Node)","0.995 ms (0%)","1.0 ms (0%)","0.995 ms (0%)","1.0 ms (0%)","2,000"
"java.io.BufferedWriter.write (String, int, int)","1.15 ms (0%)","1.0 ms (0%)","1.86 ms (0%)","1.83 ms (0%)","801"
"java.lang.Integer.toString (int)","1.1 ms (0%)","1.0 ms (0%)","1.53 ms (0%)","1.41 ms (0%)","1,000"
"java.util.regex.Matcher.find ()","0.978 ms (0%)","0.972 ms (0%)","5.71 ms (0%)","5.53 ms (0%)","2,400"
"java.security.AccessControlContext.combine (java.security.ProtectionDomain[], java.security.ProtectionDomain[])","0.947 ms (0%)","0.960 ms (0%)","0.947 ms (0%)","0.960 ms (0%)","1,600"
"java.lang.String.indexOf (char[], int, int, char[], int, int, int)","0.855 ms (0%)","0.939 ms (0%)","0.855 ms (0%)","0.939 ms (0%)","4,854"
"java.lang.Integer.parseInt (String, int)","0.946 ms (0%)","0.910 ms (0%)","2.55 ms (0%)","2.55 ms (0%)","300"
"org.dacapo.harness.Benchmark.startIteration ()","0.937 ms (0%)","0.907 ms (0%)","27.3 ms (0%)","25.0 ms (0%)","100"
"sun.nio.cs.UTF_8$Encoder.encodeLoop (java.nio.CharBuffer, java.nio.ByteBuffer)","1.12 ms (0%)","0.906 ms (0%)","6.75 ms (0%)","6.58 ms (0%)","801"
"java.lang.AbstractStringBuilder.newCapacity (int)","0.901 ms (0%)","0.898 ms (0%)","0.901 ms (0%)","0.898 ms (0%)","4,838"
"java.lang.String.toString ()","0.992 ms (0%)","0.895 ms (0%)","0.992 ms (0%)","0.895 ms (0%)","5,600"
"java.lang.StringBuilder.append (int)","2.10 ms (0%)","0.837 ms (0%)","8.12 ms (0%)","3.29 ms (0%)","1,199"
"sun.nio.cs.StreamEncoder.write (char[], int, int)","0.787 ms (0%)","0.804 ms (0%)","12.4 ms (0%)","12.2 ms (0%)","801"
"org.dacapo.harness.TeeOutputStream.version ()","0.808 ms (0%)","0.790 ms (0%)","12.2 ms (0%)","12.0 ms (0%)","200"
"java.io.FileOutputStream.access$000 (java.io.FileOutputStream)","0.765 ms (0%)","0.789 ms (0%)","0.765 ms (0%)","0.789 ms (0%)","202"
"java.io.Writer.write (String)","0.808 ms (0%)","0.776 ms (0%)","2.92 ms (0%)","2.89 ms (0%)","801"
"org.dacapo.parser.Config.getOutputs (String)","0.820 ms (0%)","0.764 ms (0%)","2.9 ms (0%)","2.8 ms (0%)","201"
"org.dacapo.harness.Benchmark.stopIteration ()","0.754 ms (0%)","0.753 ms (0%)","5.76 ms (0%)","5.71 ms (0%)","101"
"sun.nio.cs.StreamEncoder.flushBuffer ()","0.762 ms (0%)","0.736 ms (0%)","12.4 ms (0%)","12.3 ms (0%)","801"
"java.lang.AbstractStringBuilder.append (AbstractStringBuilder)","0.753 ms (0%)","0.735 ms (0%)","2.23 ms (0%)","2.11 ms (0%)","400"
"org.dacapo.harness.TeeOutputStream.newLog ()","0.831 ms (0%)","0.720 ms (0%)","7.85 ms (0%)","5.99 ms (0%)","200"
"org.apache.commons.cli.CommandLine.resolveOption (String)","0.718 ms (0%)","0.695 ms (0%)","1.48 ms (0%)","1.46 ms (0%)","100"
"java.lang.String.startsWith (String)","0.649 ms (0%)","0.663 ms (0%)","1.1 ms (0%)","1.3 ms (0%)","1,818"
"java.nio.Buffer.clear ()","0.730 ms (0%)","0.634 ms (0%)","0.730 ms (0%)","0.634 ms (0%)","801"
"java.io.PrintStream.print (String)","0.579 ms (0%)","0.620 ms (0%)","27.3 ms (0%)","27.0 ms (0%)","600"
"sun.nio.cs.StreamEncoder.implFlushBuffer ()","0.553 ms (0%)","0.612 ms (0%)","11.6 ms (0%)","11.6 ms (0%)","801"
"java.lang.Thread.init (ThreadGroup, Runnable, String, long)","0.627 ms (0%)","0.599 ms (0%)","40.3 ms (0%)","18.5 ms (0%)","800"
"java.lang.Integer.stringSize (int)","0.702 ms (0%)","0.584 ms (0%)","0.702 ms (0%)","0.584 ms (0%)","2,199"
"java.util.ArrayList.addAll (java.util.Collection)","0.578 ms (0%)","0.581 ms (0%)","1.19 ms (0%)","1.16 ms (0%)","100"
"java.lang.Character.digit (int, int)","0.575 ms (0%)","0.553 ms (0%)","1.11 ms (0%)","1.11 ms (0%)","700"
"java.lang.ThreadGroup.checkAccess ()","18.0 ms (0%)","0.537 ms (0%)","18.2 ms (0%)","0.714 ms (0%)","800"
"java.io.UnixFileSystem.isAbsolute (java.io.File)","0.668 ms (0%)","0.535 ms (0%)","0.668 ms (0%)","0.535 ms (0%)","2,818"
"java.lang.ThreadGroup.add (Thread)","0.633 ms (0%)","0.529 ms (0%)","0.633 ms (0%)","0.529 ms (0%)","800"
"java.lang.Integer.getChars (int, int, char[])","0.508 ms (0%)","0.528 ms (0%)","0.508 ms (0%)","0.528 ms (0%)","2,199"
"java.io.OutputStreamWriter.flushBuffer ()","0.503 ms (0%)","0.518 ms (0%)","12.9 ms (0%)","12.9 ms (0%)","801"
"java.lang.AbstractStringBuilder.getChars (int, int, char[], int)","0.525 ms (0%)","0.517 ms (0%)","0.525 ms (0%)","0.517 ms (0%)","400"
"java.security.AccessControlContext.calculateFields (java.security.AccessControlContext, java.security.AccessControlContext, java.security.Permission[])","0.511 ms (0%)","0.513 ms (0%)","0.771 ms (0%)","0.775 ms (0%)","800"
"java.lang.Thread.getContextClassLoader ()","0.538 ms (0%)","0.512 ms (0%)","2.0 ms (0%)","0.744 ms (0%)","900"
"java.io.PrintStream.newLine ()","0.573 ms (0%)","0.508 ms (0%)","7.27 ms (0%)","7.25 ms (0%)","201"
"java.io.File.renameTo (java.io.File)","0.514 ms (0%)","0.501 ms (0%)","5.36 ms (0%)","5.26 ms (0%)","200"
"org.dacapo.harness.TeeOutputStream.closeLog ()","0.495 ms (0%)","0.491 ms (0%)","3.11 ms (0%)","3.8 ms (0%)","202"
"java.io.BufferedWriter.ensureOpen ()","0.438 ms (0%)","0.486 ms (0%)","0.438 ms (0%)","0.486 ms (0%)","1,602"
"java.lang.StringBuffer.append (CharSequence, int, int)","0.497 ms (0%)","0.482 ms (0%)","3.36 ms (0%)","3.26 ms (0%)","800"
"java.lang.System.setErr (java.io.PrintStream)","0.458 ms (0%)","0.459 ms (0%)","0.620 ms (0%)","0.624 ms (0%)","301"
"org.dacapo.harness.Callback.runAgain ()","0.466 ms (0%)","0.450 ms (0%)","7.33 ms (0%)","7.25 ms (0%)","100"
"java.lang.StringBuffer.append (CharSequence)","0.432 ms (0%)","0.449 ms (0%)","3.67 ms (0%)","3.56 ms (0%)","400"
"java.util.Collections.unmodifiableSet (java.util.Set)","0.453 ms (0%)","0.448 ms (0%)","0.453 ms (0%)","0.448 ms (0%)","201"
"java.util.regex.Matcher.appendTail (StringBuffer)","0.462 ms (0%)","0.444 ms (0%)","3.19 ms (0%)","3.10 ms (0%)","400"
"java.lang.AbstractStringBuilder.append (CharSequence)","0.454 ms (0%)","0.439 ms (0%)","3.24 ms (0%)","3.11 ms (0%)","400"
"org.dacapo.parser.Config.getThreadFactor (String)","0.452 ms (0%)","0.428 ms (0%)","1.71 ms (0%)","1.70 ms (0%)","1,000"
"java.lang.System.setProperty (String, String)","0.423 ms (0%)","0.417 ms (0%)","1.15 ms (0%)","1.14 ms (0%)","100"
"org.dacapo.harness.Lusearch.iterate (String)","0.426 ms (0%)","0.416 ms (0%)","73,267 ms (4.6%)","281 ms (0%)","100"
"java.io.OutputStreamWriter.write (char[], int, int)","0.473 ms (0%)","0.413 ms (0%)","12.8 ms (0%)","12.6 ms (0%)","801"
"java.lang.Thread.checkAccess ()","0.416 ms (0%)","0.412 ms (0%)","0.698 ms (0%)","0.624 ms (0%)","800"
"java.lang.StringBuilder.getChars (int, int, char[], int)","0.401 ms (0%)","0.402 ms (0%)","0.926 ms (0%)","0.920 ms (0%)","400"
"java.lang.ThreadGroup.addUnstarted ()","0.396 ms (0%)","0.393 ms (0%)","0.396 ms (0%)","0.393 ms (0%)","800"
"java.util.Collections$UnmodifiableCollection.iterator ()","0.352 ms (0%)","0.384 ms (0%)","0.715 ms (0%)","0.729 ms (0%)","201"
"java.io.PrintStream.println (String)","0.373 ms (0%)","0.381 ms (0%)","15.7 ms (0%)","15.5 ms (0%)","201"
"java.lang.String.startsWith (String, int)","0.364 ms (0%)","0.374 ms (0%)","0.364 ms (0%)","0.374 ms (0%)","1,818"
"org.dacapo.harness.TeeOutputStream.flush ()","0.342 ms (0%)","0.352 ms (0%)","1.4 ms (0%)","1.5 ms (0%)","202"
"java.util.LinkedHashMap$LinkedKeySet.iterator ()","0.362 ms (0%)","0.343 ms (0%)","0.362 ms (0%)","0.343 ms (0%)","201"
"java.lang.System.checkIO ()","0.343 ms (0%)","0.336 ms (0%)","0.459 ms (0%)","0.462 ms (0%)","602"
"java.lang.CharacterDataLatin1.digit (int, int)","0.287 ms (0%)","0.334 ms (0%)","0.425 ms (0%)","0.460 ms (0%)","700"
"org.dacapo.harness.TeePrintStream.closeLog ()","0.330 ms (0%)","0.327 ms (0%)","3.44 ms (0%)","3.41 ms (0%)","202"
"java.util.Hashtable.put (Object, Object)","0.351 ms (0%)","0.327 ms (0%)","0.376 ms (0%)","0.363 ms (0%)","100"
"java.lang.AbstractStringBuilder.append (long)","0.285 ms (0%)","0.302 ms (0%)","0.501 ms (0%)","0.501 ms (0%)","99"
"java.lang.StringBuffer.append (AbstractStringBuilder)","0.290 ms (0%)","0.297 ms (0%)","2.52 ms (0%)","2.41 ms (0%)","400"
"java.lang.Character.digit (char, int)","0.284 ms (0%)","0.292 ms (0%)","1.40 ms (0%)","1.40 ms (0%)","700"
"java.lang.Thread.nextThreadID ()","1.7 ms (0%)","0.291 ms (0%)","1.7 ms (0%)","0.291 ms (0%)","800"
"org.dacapo.harness.Benchmark.useBenchmarkClassLoader ()","0.295 ms (0%)","0.290 ms (0%)","0.467 ms (0%)","0.474 ms (0%)","100"
"java.io.FileOutputStream.close ()","0.305 ms (0%)","0.281 ms (0%)","1.57 ms (0%)","1.54 ms (0%)","202"
"org.apache.commons.cli.CommandLine.hasOption (String)","0.292 ms (0%)","0.280 ms (0%)","2.1 ms (0%)","1.98 ms (0%)","100"
"java.lang.StringBuffer.append (AbstractStringBuilder)","0.268 ms (0%)","0.265 ms (0%)","2.79 ms (0%)","2.67 ms (0%)","400"
"org.dacapo.harness.Benchmark.revertClassLoader ()","0.299 ms (0%)","0.261 ms (0%)","0.452 ms (0%)","0.426 ms (0%)","101"
"java.lang.Integer.parseInt (String)","0.260 ms (0%)","0.260 ms (0%)","2.82 ms (0%)","2.81 ms (0%)","300"
"java.util.ArrayList$Itr.next ()","0.270 ms (0%)","0.257 ms (0%)","0.386 ms (0%)","0.388 ms (0%)","300"
"java.lang.Runtime.getRuntime ()","0.235 ms (0%)","0.248 ms (0%)","0.235 ms (0%)","0.248 ms (0%)","1,100"
"org.dacapo.harness.CommandLineArgs.getMethodology ()","0.227 ms (0%)","0.237 ms (0%)","2.24 ms (0%)","2.22 ms (0%)","100"
"org.dacapo.parser.Config.getArgs (String)","0.235 ms (0%)","0.235 ms (0%)","1.11 ms (0%)","1.9 ms (0%)","100"
"java.io.BufferedOutputStream.write (byte[], int, int)","0.225 ms (0%)","0.229 ms (0%)","0.247 ms (0%)","0.252 ms (0%)","801"
"org.dacapo.harness.Callback.complete (String, boolean)","0.218 ms (0%)","0.218 ms (0%)","27.2 ms (0%)","27.2 ms (0%)","100"
"org.dacapo.harness.CommandLineArgs.getIterations ()","0.212 ms (0%)","0.212 ms (0%)","4.55 ms (0%)","4.51 ms (0%)","100"
"java.util.regex.Pattern$LastNode.match (java.util.regex.Matcher, int, CharSequence)","0.208 ms (0%)","0.211 ms (0%)","0.208 ms (0%)","0.211 ms (0%)","400"
"sun.nio.cs.StreamEncoder.ensureOpen ()","0.188 ms (0%)","0.209 ms (0%)","0.188 ms (0%)","0.209 ms (0%)","801"
"org.dacapo.harness.Benchmark.postIteration (String)","0.209 ms (0%)","0.206 ms (0%)","432 ms (0%)","424 ms (0%)","100"
"java.io.FileOutputStream$1.close ()","0.232 ms (0%)","0.205 ms (0%)","0.997 ms (0%)","0.994 ms (0%)","202"
"org.dacapo.harness.Callback.start (String)","0.183 ms (0%)","0.203 ms (0%)","18.3 ms (0%)","18.0 ms (0%)","100"
"java.io.BufferedWriter.min (int, int)","0.213 ms (0%)","0.203 ms (0%)","0.213 ms (0%)","0.203 ms (0%)","801"
"java.util.Properties.setProperty (String, String)","0.185 ms (0%)","0.194 ms (0%)","0.561 ms (0%)","0.558 ms (0%)","100"
"java.io.BufferedWriter.newLine ()","0.180 ms (0%)","0.192 ms (0%)","0.977 ms (0%)","0.979 ms (0%)","201"
"java.lang.System.setProperties (java.util.Properties)","0.325 ms (0%)","0.191 ms (0%)","0.366 ms (0%)","0.233 ms (0%)","201"
"org.dacapo.parser.Config.getThreadModel ()","0.206 ms (0%)","0.191 ms (0%)","0.206 ms (0%)","0.191 ms (0%)","1,000"
"java.lang.StringBuilder.length ()","0.169 ms (0%)","0.175 ms (0%)","0.169 ms (0%)","0.175 ms (0%)","400"
"org.dacapo.harness.TeePrintStream.version ()","0.174 ms (0%)","0.173 ms (0%)","12.4 ms (0%)","12.2 ms (0%)","200"
"java.lang.StringBuilder.append (long)","0.178 ms (0%)","0.173 ms (0%)","0.679 ms (0%)","0.675 ms (0%)","99"
"java.lang.Thread.setContextClassLoader (ClassLoader)","0.161 ms (0%)","0.169 ms (0%)","0.217 ms (0%)","0.231 ms (0%)","201"
"org.apache.commons.cli.CommandLine.getOptionValue (String)","0.162 ms (0%)","0.162 ms (0%)","3.24 ms (0%)","3.21 ms (0%)","200"
"java.net.URLClassLoader.findClass (String)","0.163 ms (0%)","0.162 ms (0%)","0.197 ms (0%)","0.195 ms (0%)","1"
"org.apache.commons.cli.Util.stripLeadingHyphens (String)","0.163 ms (0%)","0.161 ms (0%)","0.387 ms (0%)","0.387 ms (0%)","100"
"java.util.ArrayList.iterator ()","0.130 ms (0%)","0.157 ms (0%)","0.130 ms (0%)","0.157 ms (0%)","300"
"org.apache.commons.cli.CommandLine.getOptionValue (String, String)","0.153 ms (0%)","0.150 ms (0%)","3.40 ms (0%)","3.36 ms (0%)","200"
"java.util.LinkedHashMap.keySet ()","0.118 ms (0%)","0.148 ms (0%)","0.118 ms (0%)","0.148 ms (0%)","201"
"java.util.ArrayList$Itr.hasNext ()","0.172 ms (0%)","0.147 ms (0%)","0.172 ms (0%)","0.147 ms (0%)","600"
"java.lang.CharacterDataLatin1.getProperties (int)","0.148 ms (0%)","0.135 ms (0%)","0.148 ms (0%)","0.135 ms (0%)","705"
"org.dacapo.harness.TeeOutputStream.openLog ()","0.141 ms (0%)","0.134 ms (0%)","7.99 ms (0%)","6.13 ms (0%)","200"
"java.util.ArrayList.contains (Object)","0.133 ms (0%)","0.133 ms (0%)","0.244 ms (0%)","0.243 ms (0%)","100"
"java.util.Arrays.copyOf (Object[], int)","0.118 ms (0%)","0.133 ms (0%)","0.147 ms (0%)","0.160 ms (0%)","200"
"java.util.ArrayList$Itr.checkForComodification ()","0.115 ms (0%)","0.131 ms (0%)","0.115 ms (0%)","0.131 ms (0%)","300"
"java.util.ArrayList.toArray ()","0.148 ms (0%)","0.126 ms (0%)","0.238 ms (0%)","0.228 ms (0%)","100"
"org.dacapo.harness.TeePrintStream.openLog ()","0.121 ms (0%)","0.122 ms (0%)","8.11 ms (0%)","6.25 ms (0%)","200"
"org.dacapo.harness.Callback.stop (long)","0.133 ms (0%)","0.121 ms (0%)","0.133 ms (0%)","0.121 ms (0%)","101"
"java.lang.ClassLoader.loadClass (String, boolean)","0.230 ms (0%)","0.120 ms (0%)","0.580 ms (0%)","0.452 ms (0%)","3"
"java.lang.CharacterData.of (int)","0.128 ms (0%)","0.111 ms (0%)","0.128 ms (0%)","0.111 ms (0%)","705"
"java.util.ArrayList.indexOf (Object)","0.110 ms (0%)","0.110 ms (0%)","0.110 ms (0%)","0.110 ms (0%)","100"
"org.dacapo.harness.TestHarness.getBuildVersion ()","0.098 ms (0%)","0.098 ms (0%)","0.098 ms (0%)","0.098 ms (0%)","200"
"java.lang.Long.getChars (long, int, char[])","0.085 ms (0%)","0.093 ms (0%)","0.085 ms (0%)","0.093 ms (0%)","99"
"java.util.ArrayList.ensureCapacityInternal (int)","0.102 ms (0%)","0.084 ms (0%)","0.373 ms (0%)","0.353 ms (0%)","100"
"org.dacapo.harness.DacapoClassLoader.loadClass (String, boolean)","0.090 ms (0%)","0.082 ms (0%)","0.940 ms (0%)","0.794 ms (0%)","1"
"java.util.concurrent.ConcurrentHashMap.putVal (Object, Object, boolean)","0.079 ms (0%)","0.079 ms (0%)","0.119 ms (0%)","0.119 ms (0%)","2"
"java.util.ArrayList.ensureExplicitCapacity (int)","0.094 ms (0%)","0.079 ms (0%)","0.231 ms (0%)","0.216 ms (0%)","100"
"java.util.ArrayList.grow (int)","0.080 ms (0%)","0.078 ms (0%)","0.137 ms (0%)","0.136 ms (0%)","100"
"org.dacapo.harness.CommandLineArgs.getSize ()","0.087 ms (0%)","0.073 ms (0%)","0.731 ms (0%)","0.716 ms (0%)","100"
"org.dacapo.harness.Callback.isWarmup ()","0.064 ms (0%)","0.064 ms (0%)","0.064 ms (0%)","0.064 ms (0%)","100"
"java.util.ArrayList.toArray (Object[])","0.066 ms (0%)","0.064 ms (0%)","0.066 ms (0%)","0.064 ms (0%)","100"
"java.lang.Long.stringSize (long)","0.049 ms (0%)","0.063 ms (0%)","0.049 ms (0%)","0.063 ms (0%)","99"
"java.lang.ClassLoader.checkName (String)","0.066 ms (0%)","0.061 ms (0%)","0.123 ms (0%)","0.118 ms (0%)","5"
"java.lang.Character.toUpperCaseEx (int)","0.060 ms (0%)","0.054 ms (0%)","0.111 ms (0%)","0.103 ms (0%)","5"
"java.util.concurrent.ConcurrentHashMap.putIfAbsent (Object, Object)","0.069 ms (0%)","0.054 ms (0%)","0.190 ms (0%)","0.175 ms (0%)","2"
"java.util.ArrayList.isEmpty ()","0.051 ms (0%)","0.050 ms (0%)","0.051 ms (0%)","0.050 ms (0%)","200"
"org.dacapo.harness.Benchmark.preIteration (String)","0.052 ms (0%)","0.050 ms (0%)","0.052 ms (0%)","0.050 ms (0%)","100"
"java.util.ArrayList.calculateCapacity (Object[], int)","0.034 ms (0%)","0.048 ms (0%)","0.038 ms (0%)","0.052 ms (0%)","100"
"java.lang.ClassLoader.findLoadedClass (String)","0.048 ms (0%)","0.045 ms (0%)","0.154 ms (0%)","0.146 ms (0%)","4"
"java.lang.ClassLoader.getClassLoadingLock (String)","0.038 ms (0%)","0.034 ms (0%)","0.229 ms (0%)","0.210 ms (0%)","3"
"java.lang.String.toUpperCase (java.util.Locale)","0.031 ms (0%)","0.029 ms (0%)","0.142 ms (0%)","0.132 ms (0%)","1"
"java.lang.CharacterDataLatin1.toUpperCaseEx (int)","0.027 ms (0%)","0.024 ms (0%)","0.039 ms (0%)","0.036 ms (0%)","5"
"java.util.Arrays.copyOf (Object[], int, Class)","0.021 ms (0%)","0.020 ms (0%)","0.027 ms (0%)","0.026 ms (0%)","4"
"java.lang.Throwable.fillInStackTrace ()","0.017 ms (0%)","0.017 ms (0%)","0.017 ms (0%)","0.017 ms (0%)","1"
"sun.misc.VM.allowArraySyntax ()","0.014 ms (0%)","0.014 ms (0%)","0.014 ms (0%)","0.014 ms (0%)","5"
"java.lang.ClassLoader.findBootstrapClassOrNull (String)","0.012 ms (0%)","0.012 ms (0%)","0.032 ms (0%)","0.032 ms (0%)","1"
"java.lang.String.replace (char, char)","0.009 ms (0%)","0.009 ms (0%)","0.009 ms (0%)","0.009 ms (0%)","1"
